Place,Name,Sex,Event,Division,Equipment,BirthYear,State,BodyweightKg,Bench1Kg,Bench2Kg,Bench3Kg,Best3BenchKg,TotalKg,Age,BirthDate
1,Precious Andrew,F,B,FR-O,Raw,1986,NM,67.61,82.5,85,87.5,87.5,87.5,,
2,Maura Shuttleworth,F,B,F-O,Single-ply,1976,NM,55.9,110,117.5,-127.5,117.5,117.5,,
3,Aurea Cardiel,F,B,FR-O,Raw,1991,NM,57.18,40,50,-52.5,50,50,,
1,Agustus Saavedra,M,B,MR-O,Raw,1990,NM,119.41,-190,192.5,-197.5,192.5,192.5,,
2,Michael Zawilinski,M,B,M-O,Single-ply,1980,RI,179.4,302.5,-317.5,-317.5,302.5,302.5,,
3,Randal Whitt,M,B,MR-O,Raw,1963,NM,114.16,152.5,157.5,160,160,160,,
4,Joel Brown,M,B,MR-O,Raw,1975,NM,102.27,142.5,145,-150,145,145,,
5,Rodney Elm,M,B,M-O,Single-ply,1975,AZ,88.94,150,-155,155,155,155,,
DQ,Jack Crouse,M,B,MR-O,Raw,1951,AZ,81.98,-102.5,-102.5,-102.5,,,,
