Division,WeightClassKg,Place,Name,Team,BodyweightKg,Best3SquatKg,Best3BenchKg,Best3DeadliftKg,TotalKg,Equipment,Event,Sex
Girls,44.23,1,Jolie Carrillo,Pettus,44.09,83.91,52.16,92.99,229.06,Single-ply,SBD,F
Girls,44.23,2,Caitlyn Luarca,Freer,43.09,90.72,38.56,92.99,222.26,Single-ply,SBD,F
Girls,44.23,3,Reiann Longoria,Corpus Christi John Paul II High School,43.82,70.31,34.02,81.65,185.97,Single-ply,SBD,F
Girls,44.23,4,Sara Perez,Freer,43.82,70.31,36.29,77.11,183.7,Single-ply,SBD,F
Girls,44.23,DQ,Abbygail Martinez,Mathis,42.46,,,,,Single-ply,SBD,F
Girls,47.85,1,Aryana Hernandez,Mathis,47.81,92.99,43.09,106.59,242.67,Single-ply,SBD,F
Girls,47.85,2,Marina Lopez,Skidmore-Tynan,47.17,83.91,40.82,83.91,208.65,Single-ply,SBD,F
Girls,47.85,DQ,Mallory Balangon,Ingleside,46.18,,,,,Single-ply,SBD,F
Girls,47.85,DQ,Jazlyn Trevino,Pettus,46.81,,,,,Single-ply,SBD,F
Girls,51.94,1,Edna Herschberger,Pettus,51.71,120.2,79.38,147.42,347,Single-ply,SBD,F
Girls,51.94,2,K'La Langne,Mathis,51.71,104.33,52.16,106.59,263.08,Single-ply,SBD,F
Girls,51.94,3,Ava Blevins,Goliad,51.07,106.59,56.7,95.25,258.55,Single-ply,SBD,F
Girls,51.94,4,Ashleiy Lopez,Three Rivers,48.17,97.52,45.36,99.79,242.67,Single-ply,SBD,F
Girls,51.94,5,Miranda Salas,Santa Gertrudis Academy,51.07,88.45,45.36,102.06,235.87,Single-ply,SBD,F
Girls,51.94,6,Priscilla Rivas,Ingleside,50.71,88.45,40.82,92.99,222.26,Single-ply,SBD,F
Girls,51.94,7,Paris Silva,Ben Bolt-Palito Blanco,50.26,77.11,31.75,79.38,188.24,Single-ply,SBD,F
Girls,56.02,1,Lauren Garza,Freer,54.52,129.27,63.5,124.74,317.51,Single-ply,SBD,F
Girls,56.02,2,Kiara Ross,Mathis,54.88,104.33,43.09,106.59,254.01,Single-ply,SBD,F
Girls,56.02,3,Robin Silguero,Santa Gertrudis Academy,54.7,88.45,47.63,113.4,249.48,Single-ply,SBD,F
Girls,56.02,4,Alexa Martin,Ingleside,54.07,90.72,43.09,102.06,235.87,Single-ply,SBD,F
Girls,56.02,5,Haylee Marmolejo,Ingleside,52.53,92.99,56.7,81.65,231.33,Single-ply,SBD,F
Girls,56.02,6,Iliana Garza,Santa Gertrudis Academy,54.16,95.25,49.9,83.91,229.06,Single-ply,SBD,F
Girls,56.02,7,Mireya Sanchez,Ben Bolt-Palito Blanco,54.61,61.23,45.36,90.72,197.31,Single-ply,SBD,F
Girls,56.02,8,Haliana Longoria,Aransas Pass,54.16,63.5,40.82,83.91,188.24,Single-ply,SBD,F
Girls,56.02,DQ,Celene Arizpe,Ben Bolt-Palito Blanco,53.71,,,,,Single-ply,SBD,F
Girls,60.1,1,Lizzie Bridges,San Diego,59.24,68.04,45.36,113.4,226.8,Single-ply,SBD,F
Girls,60.1,2,Haley Hernandez,Goliad,60.06,88.45,43.09,95.25,226.8,Single-ply,SBD,F
Girls,60.1,3,Stephanie Guajardo,George West,56.97,79.38,38.56,86.18,204.12,Single-ply,SBD,F
Girls,60.1,4,Andrea Gillespie,Ingleside,60.06,52.16,31.75,61.23,145.15,Single-ply,SBD,F
Girls,60.1,DQ,Alejandra Hernandez,Kenedy,56.79,,,,,Single-ply,SBD,F
Girls,67.36,1,Alyssa Reyes,Poteet,66.04,108.86,61.23,136.08,306.17,Single-ply,SBD,F
Girls,67.36,2,Madison Flores,Mathis,63.14,117.93,54.43,113.4,285.76,Single-ply,SBD,F
Girls,67.36,3,Asia Ramos,Poteet,61.42,97.52,52.16,111.13,260.82,Single-ply,SBD,F
Girls,67.36,4,Audri Castillo,Ingleside,65.77,90.72,54.43,104.33,249.48,Single-ply,SBD,F
Girls,67.36,5,Araceli Duenes,Three Rivers,67.31,111.13,36.29,102.06,249.48,Single-ply,SBD,F
Girls,67.36,6,Vanessa Garcia,Mathis,65.59,90.72,47.63,99.79,238.14,Single-ply,SBD,F
Girls,67.36,7,Rihana Herrera,Poteet,64.23,77.11,52.16,88.45,217.72,Single-ply,SBD,F
Girls,67.36,8,October Depperman,Aransas Pass,64.5,72.57,43.09,90.72,206.38,Single-ply,SBD,F
Girls,67.36,9,Samera Perez,San Diego,63.87,56.7,38.56,86.18,181.44,Single-ply,SBD,F
Girls,67.36,10,Thyra Carrillo,Aransas Pass,60.6,56.7,34.02,65.77,156.49,Single-ply,SBD,F
Girls,67.36,DQ,Pearl Soto,Kenedy,60.69,83.91,,,,Single-ply,SBD,F
Girls,75.07,1,Leandra Moreno,Ingleside,73.3,136.08,63.5,145.15,344.73,Single-ply,SBD,F
Girls,75.07,2,Yaritsa Alanis,Santa Gertrudis Academy,73.3,142.88,63.5,127.01,333.39,Single-ply,SBD,F
Girls,75.07,3,Analeigha Salinas,Freer,75.02,129.27,58.97,117.93,306.17,Single-ply,SBD,F
Girls,75.07,4,Selina Castillo,Santa Gertrudis Academy,73.57,102.06,61.23,131.54,294.84,Single-ply,SBD,F
Girls,75.07,5,Reina Romero,Mathis,72.12,108.86,58.97,111.13,278.96,Single-ply,SBD,F
Girls,75.07,6,Elena Davila,Mathis,72.57,102.06,58.97,104.33,265.35,Single-ply,SBD,F
Girls,75.07,7,Gabriella Rivas,Ingleside,68.22,102.06,54.43,102.06,258.55,Single-ply,SBD,F
Girls,75.07,8,Lainey Pickard,Santa Gertrudis Academy,70.67,92.99,56.7,97.52,247.21,Single-ply,SBD,F
Girls,75.07,9,Makynzi Guerra,Goliad,72.21,86.18,58.97,95.25,240.4,Single-ply,SBD,F
Girls,75.07,10,Aimee Bernal,Ben Bolt-Palito Blanco,71.85,90.72,45.36,102.06,238.14,Single-ply,SBD,F
Girls,75.07,11,Lili Sanchez,George West,68.86,72.57,34.02,88.45,195.04,Single-ply,SBD,F
Girls,82.33,1,Aubrey Benavidez,Santa Gertrudis Academy,78.11,149.69,65.77,133.81,349.27,Single-ply,SBD,F
Girls,82.33,2,Sunette Garza,Santa Gertrudis Academy,76.84,127.01,56.7,145.15,328.85,Single-ply,SBD,F
Girls,82.33,3,Emilee Whitehead,Goliad,76.84,117.93,72.57,115.67,306.17,Single-ply,SBD,F
Girls,82.33,4,Shakira Pena,Mathis,77.2,117.93,61.23,117.93,297.1,Single-ply,SBD,F
Girls,82.33,5,Katie Gonzales,Mathis,81.19,124.74,49.9,122.47,297.1,Single-ply,SBD,F
Girls,82.33,6,Daniela Zertuche,George West,76.93,115.67,63.5,113.4,292.57,Single-ply,SBD,F
Girls,82.33,7,Gabriella Moya,Santa Gertrudis Academy,80.01,106.59,61.23,117.93,285.76,Single-ply,SBD,F
Girls,82.33,8,Gabriella Moreno,Freer,79.2,106.59,43.09,113.4,263.08,Single-ply,SBD,F
Girls,82.33,9,Dalenisa Coronado,Santa Gertrudis Academy,77.11,90.72,56.7,113.4,260.82,Single-ply,SBD,F
Girls,82.33,10,Gavriella Valdez,Aransas Pass,77.2,92.99,54.43,99.79,247.21,Single-ply,SBD,F
Girls,82.33,11,Melanie Arriaga,San Diego,79.02,90.72,45.36,97.52,233.6,Single-ply,SBD,F
Girls,82.33,12,Maddie Hernandez,Santa Gertrudis Academy,80.47,68.04,56.7,108.86,233.6,Single-ply,SBD,F
Girls,82.33,13,Layla Garcia,Santa Gertrudis Academy,79.11,86.18,43.09,102.06,231.33,Single-ply,SBD,F
Girls,82.33,14,Dianca Godinez,Ben Bolt-Palito Blanco,80.1,72.57,43.09,95.25,210.92,Single-ply,SBD,F
Girls,82.33,15,Rayne Williams,Goliad,78.83,70.31,34.02,79.38,183.7,Single-ply,SBD,F
Girls,82.33,16,Carol Ridgeway,George West,80.47,47.63,34.02,72.57,154.22,Single-ply,SBD,F
Girls,82.33,DQ,Dezirae Sontana,Kenedy,81.19,86.18,,,,Single-ply,SBD,F
Girls,82.33,DQ,Maykenzie Rodriguez,Ben Bolt-Palito Blanco,76.75,,,,,Single-ply,SBD,F
Girls,90.04,1,Marivel Perez,Mathis,84.82,133.81,81.65,142.88,358.34,Single-ply,SBD,F
Girls,90.04,2,Brianna Leal,Freer,85.55,133.81,72.57,136.08,342.46,Single-ply,SBD,F
Girls,90.04,3,Jasmin Martinez,Aransas Pass,86.36,142.88,56.7,108.86,308.44,Single-ply,SBD,F
Girls,90.04,4,Laressa Rodriguez,Santa Gertrudis Academy,86.73,88.45,54.43,106.59,249.48,Single-ply,SBD,F
Girls,90.04,5,Bella Chavez,Ben Bolt-Palito Blanco,86.91,104.33,47.63,90.72,242.67,Single-ply,SBD,F
Girls,100.02,1,Raschel Lerma,Freer,97.07,161.03,83.91,158.76,403.7,Single-ply,SBD,F
Girls,100.02,2,Elia Soliz,San Diego,95.07,147.42,86.18,136.08,369.68,Single-ply,SBD,F
Girls,100.02,3,Daphnie Laymon,Freer,97.61,108.86,52.16,111.13,272.16,Single-ply,SBD,F
Girls,100.02,4,Miranda Billegas,Kenedy,99.88,79.38,61.23,108.86,249.48,Single-ply,SBD,F
Girls,100.02,DQ,Kristin Salaiz,Ben Bolt-Palito Blanco,98.79,,,,,Single-ply,SBD,F
Girls,117.71,1,Jackie Salazar,Ben Bolt-Palito Blanco,115.21,176.9,90.72,142.88,410.5,Single-ply,SBD,F
Girls,117.71,2,Allison Elizondo,San Diego,112.13,74.84,54.43,99.79,229.06,Single-ply,SBD,F
Girls,117.71,DQ,Jaslyn Estrada,Ben Bolt-Palito Blanco,102.06,,,,,Single-ply,SBD,F
Girls,117.71,DQ,India Hamilton,Goliad,110.22,,,,,Single-ply,SBD,F
Girls,117.71+,1,Bethany Gonzales,Santa Gertrudis Academy,139.34,170.1,117.93,174.63,462.66,Single-ply,SBD,F
Girls,117.71+,2,Aracely Nieto,George West,128.82,149.69,63.5,151.95,365.14,Single-ply,SBD,F
Girls,117.71+,3,Katelyn Pratz,Mathis,139.89,136.08,65.77,122.47,324.32,Single-ply,SBD,F
