Division,WeightClassKg,Place,Name,Team,BodyweightKg,Best3SquatKg,Best3BenchKg,Best3DeadliftKg,TotalKg,Equipment,Event,Sex
Boys,51.71,1,Austin Cuthberson,Van Alstyne,51.53,163.29,83.91,136.08,383.29,Single-ply,SBD,M
Boys,51.71,2,Noah Clasen,Frisco Wakeland,51.12,83.91,47.63,92.99,224.53,Single-ply,SBD,M
Boys,51.71,3,Donovan Carter,Carrollton Ranchview,44.91,74.84,45.36,68.04,188.24,Single-ply,SBD,M
Boys,55.79,1,John Tran,Carrollton Creekview,54.61,161.03,83.91,170.1,415.04,Single-ply,SBD,M
Boys,55.79,2,Schon Nichols,Farmersville,55.29,151.95,79.38,165.56,396.89,Single-ply,SBD,M
Boys,55.79,3,Conner Womack,Princeton,55.43,124.74,113.4,124.74,362.87,Single-ply,SBD,M
Boys,55.79,4,Zach Rexin,Frisco Lebanon Trail,54.57,124.74,77.11,138.35,340.19,Single-ply,SBD,M
Boys,55.79,5,Joevon Sherman,Sherman,51.8,102.06,65.77,113.4,281.23,Single-ply,SBD,M
Boys,55.79,6,Jeremiah Williams,Bishop Lynch,55.66,95.25,61.23,122.47,278.96,Single-ply,SBD,M
Boys,55.79,7,Brayden Reeves,Little Elm,55.29,70.31,36.29,74.84,181.44,Single-ply,SBD,M
Boys,55.79,DQ,Trevor Nate,Frisco Wakeland,55.79,,,,,Single-ply,SBD,M
Boys,55.79,DQ,Dylan Martinez,Castleberry,55.79,,,,,Single-ply,SBD,M
Boys,55.79,DQ,Seth Westmoreland,Sherman,55.79,,,,,Single-ply,SBD,M
Boys,59.87,1,Britton Despain,Little Elm,59.01,136.08,79.38,174.63,390.09,Single-ply,SBD,M
Boys,59.87,2,Kolton Pulliam,Blue Ridge,59.69,138.35,90.72,142.88,371.95,Single-ply,SBD,M
Boys,59.87,3,Jeffrey Boyd,Melissa,58.38,142.88,79.38,142.88,365.14,Single-ply,SBD,M
Boys,59.87,4,Nick Doros,Frisco Wakeland,58.56,124.74,83.91,142.88,351.53,Single-ply,SBD,M
Boys,59.87,5,Jimmy Rollins,Van Alstyne,59.1,129.27,70.31,149.69,349.27,Single-ply,SBD,M
Boys,59.87,6,Myles Williams,Melissa,58.56,136.08,68.04,142.88,347,Single-ply,SBD,M
Boys,59.87,7,Victor Nguyen,Carrollton Turner,59.65,111.13,74.84,161.03,347,Single-ply,SBD,M
Boys,59.87,8,Nick Kush,Frisco Heritage,58.69,136.08,74.84,129.27,340.19,Single-ply,SBD,M
Boys,59.87,9,Creed Larned,Frisco Lebanon Trail,56.43,138.35,70.31,129.27,337.93,Single-ply,SBD,M
Boys,59.87,10,Conner Gressett,Frisco Wakeland,59.51,127.01,65.77,131.54,324.32,Single-ply,SBD,M
Boys,59.87,DQ,Adrian Araiza,Bishop Lynch,57.47,61.23,45.36,,,Single-ply,SBD,M
Boys,67.13,1,Ethan Barboza,Castleberry,66.5,174.63,113.4,167.83,455.86,Single-ply,SBD,M
Boys,67.13,2,Kasey Nguyen,Carrollton Creekview,66.68,176.9,88.45,165.56,430.91,Single-ply,SBD,M
Boys,67.13,3,Trevor Adkins,Frisco Lebanon Trail,65.59,147.42,90.72,167.83,405.97,Single-ply,SBD,M
Boys,67.13,4,Sam Hamidi,Frisco Lebanon Trail,65.86,151.95,95.25,151.95,399.16,Single-ply,SBD,M
Boys,67.13,5,Jerry Cortez,Farmersville,59.92,142.88,97.52,151.95,392.36,Single-ply,SBD,M
Boys,67.13,6,Saul Bazan,Castleberry,62.32,142.88,102.06,136.08,381.02,Single-ply,SBD,M
Boys,67.13,7,Brennan Bates,Sherman,66.68,147.42,72.57,149.69,369.68,Single-ply,SBD,M
Boys,67.13,8,Andrew Mast,Carrollton Creekview,59.96,131.54,90.72,138.35,360.61,Single-ply,SBD,M
Boys,67.13,9,Cannon Green,Frisco Centennial,64.77,138.35,83.91,136.08,358.34,Single-ply,SBD,M
Boys,67.13,10,Payton Stamper,Frisco Wakeland,67.04,138.35,77.11,142.88,358.34,Single-ply,SBD,M
Boys,67.13,11,Justin Lewis,Lucas Lovejoy,63.64,131.54,81.65,138.35,351.53,Single-ply,SBD,M
Boys,67.13,12,Mason Wallace,Lucas Lovejoy,66.95,124.74,83.91,142.88,351.53,Single-ply,SBD,M
Boys,67.13,13,Garrett Cannon,Frisco Heritage,64,124.74,90.72,129.27,344.73,Single-ply,SBD,M
Boys,67.13,14,Sam Wyatt,Van Alstyne,63.87,142.88,70.31,124.74,337.93,Single-ply,SBD,M
Boys,67.13,15,James Washington,Carrollton Ranchview,64.77,115.67,79.38,140.61,335.66,Single-ply,SBD,M
Boys,67.13,16,Zavery Miller,Sherman,65.68,115.67,79.38,138.35,333.39,Single-ply,SBD,M
Boys,67.13,17,Roberto Fernandez,Bishop Lynch,63.55,124.74,72.57,120.2,317.51,Single-ply,SBD,M
Boys,67.13,18,Gavin Majdan,Melissa,63.28,120.2,72.57,122.47,315.25,Single-ply,SBD,M
Boys,67.13,19,Ben Pfeil,Carrollton Creekview,61.37,102.06,77.11,127.01,306.17,Single-ply,SBD,M
Boys,67.13,20,Gharron Sheffield,Lucas Lovejoy,66.36,120.2,72.57,113.4,306.17,Single-ply,SBD,M
Boys,67.13,21,Foster Cataldie,Van Alstyne,66.32,108.86,72.57,108.86,290.3,Single-ply,SBD,M
Boys,67.13,22,Junior Money,Nevada Community,65.27,102.06,56.7,124.74,283.5,Single-ply,SBD,M
Boys,67.13,23,Alex Peperidis,Van Alstyne,62.01,102.06,63.5,113.4,278.96,Single-ply,SBD,M
Boys,67.13,24,Asher Reinhard,Howe,60.1,92.99,65.77,74.84,233.6,Single-ply,SBD,M
Boys,67.13,DQ,Gabriel Dorman,Nevada Community,65.63,95.25,,,,Single-ply,SBD,M
Boys,67.13,DQ,Dylan Smith,Princeton,60.1,83.91,,,,Single-ply,SBD,M
Boys,67.13,DQ,Jordan Hogg,Frisco Lebanon Trail,67.13,,,,,Single-ply,SBD,M
Boys,67.13,DQ,Lucas Seraine,Carrollton Creekview,67.13,,,,,Single-ply,SBD,M
Boys,67.13,DQ,Rory Smith,Carrollton Ranchview,67.13,,,,,Single-ply,SBD,M
Boys,67.13,DQ,Evan Gepner,Melissa,67.13,,,,,Single-ply,SBD,M
Boys,67.13,DQ,Donovan Smith,Carrollton Turner,67.13,,,,,Single-ply,SBD,M
Boys,74.84,1,Colby Stinedurf,Farmersville,72.12,206.38,142.88,215.46,564.72,Single-ply,SBD,M
Boys,74.84,2,Isai Pena,Carrollton Creekview,70.13,199.58,113.4,213.19,526.17,Single-ply,SBD,M
Boys,74.84,3,Brendene Ramos,Castleberry,74.8,181.44,120.2,185.97,487.61,Single-ply,SBD,M
Boys,74.84,4,Aaron Cyrus,Carrollton Creekview,67.77,188.24,102.06,190.51,480.81,Single-ply,SBD,M
Boys,74.84,5,Xander Womack,Princeton,74.8,165.56,151.95,154.22,471.74,Single-ply,SBD,M
Boys,74.84,6,Cameron Washington,Sherman,70.81,174.63,95.25,183.7,453.59,Single-ply,SBD,M
Boys,74.84,7,Tyler Smith,Lucas Lovejoy,71.76,167.83,108.86,158.76,435.45,Single-ply,SBD,M
Boys,74.84,8,Rickie Brown,Carrollton Creekview,72.71,158.76,115.67,158.76,433.18,Single-ply,SBD,M
Boys,74.84,9,Andrew Palmer-Bishop,Little Elm,72.8,172.37,92.99,165.56,430.91,Single-ply,SBD,M
Boys,74.84,10,Raydarriuz Kelley,Lancaster,74.84,138.35,106.59,156.49,401.43,Single-ply,SBD,M
Boys,74.84,11,Jacob Tull,Farmersville,70.31,151.95,81.65,165.56,399.16,Single-ply,SBD,M
Boys,74.84,12,Brett Long,Van Alstyne,70.58,149.69,83.91,151.95,385.55,Single-ply,SBD,M
Boys,74.84,13,Carlos Nieto,Little Elm,74.84,131.54,81.65,170.1,383.29,Single-ply,SBD,M
Boys,74.84,14,Humberto Casteneda,Castleberry,73.21,131.54,97.52,151.95,381.02,Single-ply,SBD,M
Boys,74.84,15,Juan Hernandez,Castleberry,70.26,138.35,102.06,136.08,376.48,Single-ply,SBD,M
Boys,74.84,16,Bryson Flaherty,Frisco Memorial,72.85,136.08,92.99,145.15,374.21,Single-ply,SBD,M
Boys,74.84,17,Josh De Waal,Frisco Memorial,70.13,142.88,72.57,154.22,369.68,Single-ply,SBD,M
Boys,74.84,18,Josh Wilson,Frisco Wakeland,69.54,115.67,92.99,142.88,351.53,Single-ply,SBD,M
Boys,74.84,19,Broc Armstrong,Blue Ridge,71.44,133.81,79.38,138.35,351.53,Single-ply,SBD,M
Boys,74.84,20,Dylan Shawver,Little Elm,69.13,129.27,92.99,117.93,340.19,Single-ply,SBD,M
Boys,74.84,21,Preston Jones,Lucas Lovejoy,70.31,124.74,74.84,138.35,337.93,Single-ply,SBD,M
Boys,74.84,22,Jacob Davis,Bishop Lynch,70.76,120.2,81.65,133.81,335.66,Single-ply,SBD,M
Boys,74.84,23,Will Frey,Van Alstyne,73.89,133.81,88.45,108.86,331.12,Single-ply,SBD,M
Boys,74.84,24,Mike Koch,Van Alstyne,69.44,127.01,72.57,122.47,322.05,Single-ply,SBD,M
Boys,74.84,25,Ashton Scott,Frisco Centennial,74.16,102.06,74.84,136.08,312.98,Single-ply,SBD,M
Boys,74.84,26,Calvin Nguyen,Carrollton Creekview,72.12,124.74,52.16,115.67,292.57,Single-ply,SBD,M
Boys,74.84,27,Ashton Nguyen,Carrollton Creekview,68.99,113.4,52.16,124.74,290.3,Single-ply,SBD,M
Boys,74.84,28,Cade Whitely,Van Alstyne,72.94,102.06,65.77,115.67,283.5,Single-ply,SBD,M
Boys,74.84,29,Jack Nelson,Carrollton Creekview,73.44,102.06,61.23,111.13,274.42,Single-ply,SBD,M
Boys,74.84,30,Elijah Bloem,Van Alstyne,71.12,97.52,56.7,102.06,256.28,Single-ply,SBD,M
Boys,74.84,DQ,Tyler Allen,Nevada Community,72.48,,,,,Single-ply,SBD,M
Boys,74.84,DQ,Elijah Penny,Carrollton Ranchview,74.84,,,,,Single-ply,SBD,M
Boys,74.84,DQ,James Parker,Carrollton Ranchview,74.84,,,,,Single-ply,SBD,M
Boys,74.84,DQ,Devin Wright,Frisco Wakeland,74.84,,,,,Single-ply,SBD,M
Boys,74.84,DQ,Jesus Chavez,Sherman,74.84,,,,,Single-ply,SBD,M
Boys,82.1,1,Ethan Cortez,Farmersville,80.78,219.99,120.2,226.8,566.99,Single-ply,SBD,M
Boys,82.1,2,Micah Justice,Sherman,75.02,201.85,131.54,204.12,537.51,Single-ply,SBD,M
Boys,82.1,3,Blake Slaughter,Lucas Lovejoy,78.88,206.38,129.27,183.7,519.36,Single-ply,SBD,M
Boys,82.1,4,Rhett Attaway,Farmersville,78.52,206.38,92.99,208.65,508.02,Single-ply,SBD,M
Boys,82.1,5,Jake Taylor,Van Alstyne,78.74,192.78,113.4,199.58,505.76,Single-ply,SBD,M
Boys,82.1,6,Kam Cottle,Farmersville,75.89,174.63,102.06,188.24,464.93,Single-ply,SBD,M
Boys,82.1,7,Ethan Lollar,Frisco Memorial,79.42,174.63,122.47,156.49,453.59,Single-ply,SBD,M
Boys,82.1,8,Keith Qualls,Lucas Lovejoy,78.7,181.44,86.18,183.7,451.32,Single-ply,SBD,M
Boys,82.1,9,Bradley Braylon,Princeton,81.33,170.1,95.25,179.17,444.52,Single-ply,SBD,M
Boys,82.1,10,Davis Liebel,Frisco Memorial,81.28,165.56,92.99,176.9,435.45,Single-ply,SBD,M
Boys,82.1,11,Jose Liciero,Castleberry,76.61,158.76,115.67,158.76,433.18,Single-ply,SBD,M
Boys,82.1,12,Mario Morales,Frisco Wakeland,81.15,147.42,104.33,172.37,424.11,Single-ply,SBD,M
Boys,82.1,13,Reese Weeks,Princeton,81.65,161.03,83.91,174.63,419.57,Single-ply,SBD,M
Boys,82.1,14,Hunter Parker,Carrollton Turner,80.65,145.15,97.52,172.37,415.04,Single-ply,SBD,M
Boys,82.1,15,Alonzo Abreau,Castleberry,79.65,142.88,106.59,161.03,410.5,Single-ply,SBD,M
Boys,82.1,16,Cade Hitt,Princeton,80.38,154.22,86.18,167.83,408.23,Single-ply,SBD,M
Boys,82.1,17,Xavier Holehan,Frisco Wakeland,76.66,149.69,92.99,151.95,394.63,Single-ply,SBD,M
Boys,82.1,18,Tyson Bope,Little Elm,81.87,145.15,74.84,172.37,392.36,Single-ply,SBD,M
Boys,82.1,19,Julian Arevalo,Carrollton Turner,81.74,142.88,92.99,151.95,387.82,Single-ply,SBD,M
Boys,82.1,20,Cogan Grabowski,Farmersville,79.24,142.88,92.99,133.81,369.68,Single-ply,SBD,M
Boys,82.1,21,Heynar Berrios,Carrollton Creekview,77.79,124.74,74.84,151.95,351.53,Single-ply,SBD,M
Boys,82.1,22,Josue Benevides,Carrollton Creekview,80.06,113.4,70.31,124.74,308.44,Single-ply,SBD,M
Boys,82.1,23,Jason Contreras,Carrollton Creekview,80.47,97.52,65.77,113.4,276.69,Single-ply,SBD,M
Boys,82.1,DQ,Joseph Lee,Carrollton Ranchview,82.1,,,,,Single-ply,SBD,M
Boys,82.1,DQ,Slater James,Blue Ridge,82.1,,,,,Single-ply,SBD,M
Boys,82.1,DQ,Elmer Ordaz,Carrollton Turner,82.1,,,,,Single-ply,SBD,M
Boys,82.1,DQ,Jalen Wagner,Lancaster,78.34,,,,,Single-ply,SBD,M
Boys,82.1,DQ,Ethan Harrison,Frisco Memorial,82.1,197.31,,,,Single-ply,SBD,M
Boys,82.1,DQ,Artrai Miles-Edmond,Princeton,76.52,142.88,,,,Single-ply,SBD,M
Boys,89.81,1,Isaiah Nies,Ennis,83.19,297.1,174.63,269.89,741.62,Single-ply,SBD,M
Boys,89.81,2,Montrea Frago,Lancaster,88.95,195.04,151.95,226.8,573.79,Single-ply,SBD,M
Boys,89.81,3,Dalton Veres,Frisco Wakeland,88.54,183.7,133.81,201.85,519.36,Single-ply,SBD,M
Boys,89.81,4,Dax Ogden,Melissa,86.77,204.12,115.67,197.31,517.1,Single-ply,SBD,M
Boys,89.81,5,Roman Knautz,Frisco Lebanon Trail,87.23,172.37,113.4,217.72,503.49,Single-ply,SBD,M
Boys,89.81,6,Martin Grijalva,Sherman,84.37,181.44,117.93,201.85,501.22,Single-ply,SBD,M
Boys,89.81,7,Diego Diaz,Frisco Memorial,87.5,188.24,120.2,192.78,501.22,Single-ply,SBD,M
Boys,89.81,8,Jayvin Rodriguez,Melissa,89.13,185.97,131.54,165.56,483.08,Single-ply,SBD,M
Boys,89.81,9,Colton Westbrook,Nevada Community,82.78,165.56,104.33,181.44,451.32,Single-ply,SBD,M
Boys,89.81,10,Cade Bleakney,Nevada Community,88.86,149.69,104.33,181.44,435.45,Single-ply,SBD,M
Boys,89.81,11,Daylon Butler,Lancaster,83.91,138.35,108.86,138.35,385.55,Single-ply,SBD,M
Boys,89.81,12,Dylan Mann,Melissa,82.19,158.76,74.84,142.88,376.48,Single-ply,SBD,M
Boys,89.81,13,Lance Riley,Melissa,83.01,149.69,79.38,142.88,371.95,Single-ply,SBD,M
Boys,89.81,14,Michael Terrill,Van Alstyne,88.04,136.08,74.84,142.88,353.8,Single-ply,SBD,M
Boys,89.81,15,Cooper Carroll,Van Alstyne,88.81,111.13,77.11,140.61,328.85,Single-ply,SBD,M
Boys,89.81,16,Noah Gardner,Lucas Lovejoy,87.63,104.33,70.31,113.4,288.03,Single-ply,SBD,M
Boys,89.81,DQ,Nelson Viera,Carrollton Turner,89.81,,,,,Single-ply,SBD,M
Boys,89.81,DQ,Tristen Rocha,Carrollton Turner,89.81,,,,,Single-ply,SBD,M
Boys,89.81,DQ,Raul Hernandez,Howe,89.81,,,,,Single-ply,SBD,M
Boys,89.81,DQ,Shun Mizuno,Carrollton Ranchview,89.81,,,,,Single-ply,SBD,M
Boys,99.79,1,Garrett Spangler,Frisco Centennial,96.21,222.26,117.93,201.85,542.04,Single-ply,SBD,M
Boys,99.79,2,Peter Isaac Chavez,Bishop Lynch,90.76,226.8,124.74,188.24,539.77,Single-ply,SBD,M
Boys,99.79,3,Zach Cheney,Frisco Wakeland,93.67,165.56,117.93,195.04,478.54,Single-ply,SBD,M
Boys,99.79,4,Josue Arellanes,Castleberry,91.9,183.7,108.86,183.7,476.27,Single-ply,SBD,M
Boys,99.79,5,Josiah Robinson,Carrollton Creekview,99.29,183.7,115.67,174.63,474,Single-ply,SBD,M
Boys,99.79,6,Courtney Masingill,Lancaster,93.35,165.56,111.13,174.63,451.32,Single-ply,SBD,M
Boys,99.79,7,Aiden Reiter,Frisco Lebanon Trail,89.99,183.7,115.67,149.69,449.06,Single-ply,SBD,M
Boys,99.79,8,Kameron Sands,Frisco Memorial,99.56,142.88,106.59,165.56,415.04,Single-ply,SBD,M
Boys,99.79,9,Dahon Huff,Lancaster,98.43,129.27,108.86,163.29,401.43,Single-ply,SBD,M
Boys,99.79,10,Brandon Amaya,Carrollton Turner,95.21,133.81,61.23,204.12,399.16,Single-ply,SBD,M
Boys,99.79,11,Gerson Flores,Nevada Community,90.04,149.69,88.45,156.49,394.63,Single-ply,SBD,M
Boys,99.79,12,David Holt Chavez,Bishop Lynch,93.62,136.08,83.91,136.08,356.07,Single-ply,SBD,M
Boys,99.79,13,Levi Copeland,Van Alstyne,95.53,127.01,88.45,140.61,356.07,Single-ply,SBD,M
Boys,99.79,14,Keolan Haongsemal,Carrollton Creekview,92.49,136.08,70.31,145.15,351.53,Single-ply,SBD,M
Boys,99.79,15,Zane Sun,Van Alstyne,93.03,127.01,95.25,129.27,351.53,Single-ply,SBD,M
Boys,99.79,16,Riordan Maloney,Van Alstyne,96.62,140.61,79.38,127.01,347,Single-ply,SBD,M
Boys,99.79,17,Xander Harmon,Van Alstyne,99.16,120.2,74.84,142.88,337.93,Single-ply,SBD,M
Boys,99.79,DQ,Nathan Paik,Carrollton Ranchview,99.79,,,,,Single-ply,SBD,M
Boys,109.77,1,Jacob Batson,Farmersville,109.72,265.35,145.15,251.74,662.24,Single-ply,SBD,M
Boys,109.77,2,Andrew Bailey,Princeton,104.69,226.8,142.88,240.4,610.08,Single-ply,SBD,M
Boys,109.77,3,Dez Fraizer,Lancaster,101.83,210.92,149.69,235.87,596.47,Single-ply,SBD,M
Boys,109.77,4,Tito Chavez,Sherman,106.96,201.85,122.47,188.24,512.56,Single-ply,SBD,M
Boys,109.77,5,Numair Baig,Frisco Memorial,107.27,199.58,117.93,183.7,501.22,Single-ply,SBD,M
Boys,109.77,6,Issiah Cabrialias,Carrollton Turner,99.93,192.78,108.86,167.83,469.47,Single-ply,SBD,M
Boys,109.77,7,Josh Queneau,Nevada Community,103.19,176.9,115.67,176.9,469.47,Single-ply,SBD,M
Boys,109.77,8,Omar Ilyas,Frisco Memorial,109.41,181.44,108.86,172.37,462.66,Single-ply,SBD,M
Boys,109.77,9,Luke Jackson,Howe,103.92,174.63,102.06,179.17,455.86,Single-ply,SBD,M
Boys,109.77,10,Jackson Younger,Nevada Community,99.88,170.1,120.2,151.95,442.25,Single-ply,SBD,M
Boys,109.77,11,Stevie Hopper,Nevada Community,108.45,151.95,111.13,170.1,433.18,Single-ply,SBD,M
Boys,109.77,12,Jeremy Chairez,Farmersville,101.74,142.88,92.99,158.76,394.63,Single-ply,SBD,M
Boys,109.77,DQ,Jackson Adkins,Howe,109.77,,,,,Single-ply,SBD,M
Boys,109.77,DQ,Jayden Lunkley,Carrollton Ranchview,109.77,,,,,Single-ply,SBD,M
Boys,124.74,1,Noe Rodriguez,Nevada Community,117.57,219.99,131.54,219.99,571.53,Single-ply,SBD,M
Boys,124.74,2,Isaiah Silmon,Lancaster,124.65,215.46,156.49,195.04,566.99,Single-ply,SBD,M
Boys,124.74,3,Charles Sanders,Castleberry,115.48,208.65,136.08,199.58,544.31,Single-ply,SBD,M
Boys,124.74,4,Kalib Washington,Lancaster,112.04,195.04,147.42,185.97,528.44,Single-ply,SBD,M
Boys,124.74,5,Dylan Rock,Frisco Heritage,120.43,197.31,140.61,190.51,528.44,Single-ply,SBD,M
Boys,124.74,6,Cameron Bork,Little Elm,109.81,190.51,117.93,195.04,503.49,Single-ply,SBD,M
Boys,124.74,7,Logan Butler,Frisco Memorial,120.2,195.04,120.2,188.24,503.49,Single-ply,SBD,M
Boys,124.74,8,Javreil Dillard,Little Elm,119.2,174.63,120.2,204.12,498.95,Single-ply,SBD,M
Boys,124.74,9,Elijah Ellis,Farmersville,121.47,183.7,124.74,190.51,498.95,Single-ply,SBD,M
Boys,124.74,10,Zander Gonzales,Melissa,121.97,215.46,104.33,174.63,494.42,Single-ply,SBD,M
Boys,124.74,11,Braden Uhlmann,Frisco Memorial,121.25,179.17,129.27,183.7,492.15,Single-ply,SBD,M
Boys,124.74,12,Anthony Scalise,Princeton,118.02,174.63,142.88,172.37,489.88,Single-ply,SBD,M
Boys,124.74,13,Dakota Herrington,Howe,117.25,206.38,97.52,183.7,487.61,Single-ply,SBD,M
Boys,124.74,14,Logan Radmore,Frisco Centennial,123.83,183.7,131.54,165.56,480.81,Single-ply,SBD,M
Boys,124.74,15,Aiden McCann,Carrollton Ranchview,124.01,195.04,102.06,183.7,480.81,Single-ply,SBD,M
Boys,124.74,16,Colby Bacon,Lucas Lovejoy,111.72,176.9,115.67,183.7,476.27,Single-ply,SBD,M
Boys,124.74,17,Tony Baker,Carrollton Creekview,113.26,183.7,124.74,165.56,474,Single-ply,SBD,M
Boys,124.74,18,Efrain Guereca,Carrollton Turner,121.88,176.9,113.4,167.83,458.13,Single-ply,SBD,M
Boys,124.74,19,Billy Chandler,Lancaster,111.4,156.49,142.88,147.42,446.79,Single-ply,SBD,M
Boys,124.74,20,Julian Rodriguez,Princeton,110,156.49,113.4,165.56,435.45,Single-ply,SBD,M
Boys,124.74,21,Julian Aguilar,Carrollton Creekview,122.11,124.74,83.91,204.12,412.77,Single-ply,SBD,M
Boys,124.74,22,Noah Sanchez,Carrollton Creekview,112.26,138.35,90.72,151.95,381.02,Single-ply,SBD,M
Boys,124.74,DQ,Will Flemming,Howe,124.15,,,,,Single-ply,SBD,M
Boys,124.74+,1,Tyler Smith,Sherman,135.22,251.74,124.74,254.01,630.49,Single-ply,SBD,M
Boys,124.74+,2,Brian Jobes,Lucas Lovejoy,138.94,204.12,163.29,190.51,557.92,Single-ply,SBD,M
Boys,124.74+,3,Brandon Ward,Melissa,128.32,249.48,104.33,183.7,537.51,Single-ply,SBD,M
Boys,124.74+,4,David Johnson,Princeton,127.69,204.12,136.08,192.78,532.97,Single-ply,SBD,M
Boys,124.74+,5,Joseph Amos,Lancaster,147.42,181.44,124.74,226.8,532.97,Single-ply,SBD,M
Boys,124.74+,6,Carson Sarrett,Melissa,133.49,181.44,90.72,142.88,415.04,Single-ply,SBD,M
Boys,124.74+,7,Alek Llanes,Carrollton Ranchview,156.67,154.22,79.38,172.37,405.97,Single-ply,SBD,M
Boys,124.74+,DQ,Major Ervin,Carrollton Turner,136.08,,,,,Single-ply,SBD,M
Boys,,NS,Cooper Goodwin,Frisco Centennial,,,,,,Single-ply,SBD,M
Boys,,NS,David McFarlarnd,Frisco Centennial,,,,,,Single-ply,SBD,M
Boys,,NS,David Perkins,Frisco Centennial,,,,,,Single-ply,SBD,M
