Place,Name,BirthYear,Country,BodyweightKg,Bench1Kg,Bench2Kg,Bench3Kg,Best3BenchKg,TotalKg,WeightClassKg,Division,Event,Sex,Equipment
1,Kazuo Fujii,1966,Japan,58.6,140,-160,-160,140,140,59,Masters 1,B,M,Single-ply
2,Jay Helms,1964,USA,58.64,120,-132.5,-142.5,120,120,59,Masters 1,B,M,Single-ply
1,Olivier Waymel,1966,France,65.1,185,187.5,-195,187.5,187.5,66,Masters 1,B,M,Single-ply
2,Jeff Hadad,1966,USA,65.36,167.5,177.5,180,180,180,66,Masters 1,B,M,Single-ply
3,Shinji Fujino,1971,Japan,64.6,-170,-170,170,170,170,66,Masters 1,B,M,Single-ply
1,Bill You,1969,Canada,71.26,150,-160,160,160,160,74,Masters 1,B,M,Single-ply
1,Daniel Thurman,1968,USA,82.32,-250,-250,250,250,250,83,Masters 1,B,M,Single-ply
2,Tomi Vikla,1970,Finland,82.6,230,-240,-240,230,230,83,Masters 1,B,M,Single-ply
3,Barry Antoniow,1972,Canada,82.52,217.5,222.5,-232.5,222.5,222.5,83,Masters 1,B,M,Single-ply
4,Damian Fronzaglia,1965,USA,80.74,215,220,-230,220,220,83,Masters 1,B,M,Single-ply
5,Vesa Hartikainen,1969,Finland,81.52,-212.5,212.5,-222.5,212.5,212.5,83,Masters 1,B,M,Single-ply
6,Christophe Gauthier,1964,France,82.28,-200,200,205,205,205,83,Masters 1,B,M,Single-ply
7,Stig Frohol,1968,Norway,82.56,195,-205,-205,195,195,83,Masters 1,B,M,Single-ply
8,Veiko Friedrich,1964,Germany,82.92,-192.5,192.5,-200,192.5,192.5,83,Masters 1,B,M,Single-ply
9,Vladimír Nebola,1970,Czechia,82.46,190,-195,-202.5,190,190,83,Masters 1,B,M,Single-ply
10,Yoshihiro Sato,1970,Japan,80.18,182.5,187.5,-190,187.5,187.5,83,Masters 1,B,M,Single-ply
1,Dennis Cieri,1968,USA,92.94,270,-301,-301,270,270,93,Masters 1,B,M,Single-ply
2,Michel Marneur,1968,France,91.62,-250,-250,250,250,250,93,Masters 1,B,M,Single-ply
3,Masahiko Kassai,1971,Japan,91.74,-242.5,242.5,-270,242.5,242.5,93,Masters 1,B,M,Single-ply
4,Robert Dawidowicz,1972,Sweden,92.08,-210,-210,210,210,210,93,Masters 1,B,M,Single-ply
5,Robert Truchon,1968,Canada,90.96,145,-157.5,-157.5,145,145,93,Masters 1,B,M,Single-ply
DQ,Olav Farstad Svein,1965,Norway,92.8,-242.5,-242.5,-245,,,93,Masters 1,B,M,Single-ply
1,Klaus Semskij,1964,Germany,104.08,265,267.5,285.5,285.5,285.5,105,Masters 1,B,M,Single-ply
2,Michael Landino,1967,USA,104.5,262.5,-267.5,-270,262.5,262.5,105,Masters 1,B,M,Single-ply
3,Juha Lehto,1964,Finland,103.48,245,252.5,-262.5,252.5,252.5,105,Masters 1,B,M,Single-ply
4,Arild Kraakenes,1968,Norway,104.2,240,-257.5,-257.5,240,240,105,Masters 1,B,M,Single-ply
5,David Johnson,1967,USA,102.32,-215,215,-240,215,215,105,Masters 1,B,M,Single-ply
1,John Giffen Jr,1972,Canada,112.96,-270,272.5,277.5,277.5,277.5,120,Masters 1,B,M,Single-ply
2,Mikael Jaldefors,1966,Sweden,118.18,265,-272.5,-275,265,265,120,Masters 1,B,M,Single-ply
3,Miki Okayama,1972,Japan,106.02,225,230,-265,230,230,120,Masters 1,B,M,Single-ply
4,Stewart Cowan,1963,UK,107.9,205,-210,-210,205,205,120,Masters 1,B,M,Single-ply
DQ,Jeffrey Snyder,1971,USA,118.82,-305,-305,-305,,,120,Masters 1,B,M,Single-ply
1,Juho Jaatinen,1966,Finland,132.52,280,287.5,295,295,295,120+,Masters 1,B,M,Single-ply
2,Jaroslav Šoukal,1972,Czechia,147.68,272.5,282.5,-295,282.5,282.5,120+,Masters 1,B,M,Single-ply
3,Jürgen Löther,1963,Germany,126.84,245,250,255,255,255,120+,Masters 1,B,M,Single-ply
4,Renaud Mathon,1969,France,131.18,240,245,252.5,252.5,252.5,120+,Masters 1,B,M,Single-ply
5,Timo Rantala,1963,Finland,136.92,210,-242.5,-242.5,210,210,120+,Masters 1,B,M,Single-ply
DQ,Kjell Furesund,1966,Norway,135.4,-290,-295,-297.5,,,120+,Masters 1,B,M,Single-ply
DQ,Kohei Wada,1964,Japan,139.74,-287.5,-287.5,-292.5,,,120+,Masters 1,B,M,Single-ply
1,Štefan Koľšovský,1961,Slovakia,58.2,140,145,-147.5,145,145,59,Masters 2,B,M,Single-ply
2,Takashi Kobayashi,1961,Japan,58.06,125,127.5,-145,127.5,127.5,59,Masters 2,B,M,Single-ply
3,Savelii Pavlov,1957,Russia,58.14,110,117.5,-120,117.5,117.5,59,Masters 2,B,M,Single-ply
1,Charles Smith,1960,Netherlands,65.68,150,160,-165,160,160,66,Masters 2,B,M,Single-ply
2,Shunsuke Kamioka,1957,Japan,65.22,157.5,-160,-162.5,157.5,157.5,66,Masters 2,B,M,Single-ply
3,Marvin Huber,1953,USA,65.04,117.5,-122.5,122.5,122.5,122.5,66,Masters 2,B,M,Single-ply
4,Birger Sundstøl,1954,Norway,62.24,85,-97.5,-100,85,85,66,Masters 2,B,M,Single-ply
DQ,Seppo Flink,1953,Finland,62.98,-115,-115,-117.5,,,66,Masters 2,B,M,Single-ply
1,Klaus Griesch,1959,Germany,73.3,160,167.5,-182.5,167.5,167.5,74,Masters 2,B,M,Single-ply
2,Roger Pardo,1961,France,73.2,147.5,152.5,-167.5,152.5,152.5,74,Masters 2,B,M,Single-ply
3,Daniel Sides,1956,USA,73.24,135,150,-162.5,150,150,74,Masters 2,B,M,Single-ply
1,Shinobu Amatsuji,1962,Japan,82.56,-212.5,212.5,215,215,215,83,Masters 2,B,M,Single-ply
2,Thomas Cencich,1960,USA,82.44,192.5,197.5,-212.5,197.5,197.5,83,Masters 2,B,M,Single-ply
3,Jukka Saunamäki,1961,Sweden,81.6,190,-192.5,-197.5,190,190,83,Masters 2,B,M,Single-ply
4,Philippe Langevin,1961,France,79.96,175,180,-182.5,180,180,83,Masters 2,B,M,Single-ply
5,Erick Deconinck,1956,France,81.56,172.5,-177.5,177.5,177.5,177.5,83,Masters 2,B,M,Single-ply
6,Serik Yerishuly,1958,Kazakhstan,80.72,165,-172.5,-190,165,165,83,Masters 2,B,M,Single-ply
DQ,Naoki Ishimoto,1962,Japan,80.84,-210,-210,-212.5,,,83,Masters 2,B,M,Single-ply
DQ,Jos van Kersbergen,1957,Netherlands,82.5,-170,-170,,,,83,Masters 2,B,M,Single-ply
DQ,Tomas Ring,1960,Sweden,82.56,-177.5,-177.5,-192.5,,,83,Masters 2,B,M,Single-ply
1,Takeshi Kitagawa,1958,Japan,87.26,222.5,227.5,-240,227.5,227.5,93,Masters 2,B,M,Single-ply
2,Frans van der Putten,1962,Netherlands,91.2,215,222.5,-230,222.5,222.5,93,Masters 2,B,M,Single-ply
3,Bakyt Kerimbekov,1961,Kyrgyzstan,91.9,200,207.5,217.5,217.5,217.5,93,Masters 2,B,M,Single-ply
4,Gregory Jones,1961,USA,92.78,212.5,217.5,-230,217.5,217.5,93,Masters 2,B,M,Single-ply
5,Osamu Iijima,1954,Japan,87.52,205,-210,-210,205,205,93,Masters 2,B,M,Single-ply
6,Voitto Ahopelto,1956,Finland,88.34,150,-160,-165,150,150,93,Masters 2,B,M,Single-ply
DQ,Ian Kinghorn,1959,UK,92.7,-205,-205,-205,,,93,Masters 2,B,M,Single-ply
1,Charles Turco,1956,USA,102.8,235,-242.5,252.5,252.5,252.5,105,Masters 2,B,M,Single-ply
2,Thomas Müller,1962,Germany,102.72,205,210,-220,210,210,105,Masters 2,B,M,Single-ply
3,Harri Hagfors,1961,Finland,100.72,195,202.5,-210,202.5,202.5,105,Masters 2,B,M,Single-ply
4,Gilbert van der Heijden,1957,Netherlands,93.96,170,-177.5,-177.5,170,170,105,Masters 2,B,M,Single-ply
DQ,Tarmo Vanhamäki,1960,Finland,97.22,-200,-200,-205,,,105,Masters 2,B,M,Single-ply
DQ,Brian Rock,1959,Canada,103.78,-195,-195,-205,,,105,Masters 2,B,M,Single-ply
1,Motohisa Kojo,1958,Japan,119.12,250,-273,-273,250,250,120,Masters 2,B,M,Single-ply
2,Jiří Krčmář,1962,Czechia,114.24,-215,215,-250,215,215,120,Masters 2,B,M,Single-ply
3,Julian Massey,1956,UK,115.78,-175,175,190,190,190,120,Masters 2,B,M,Single-ply
4,Ian Sullivan,1960,Australia,110.36,160,165,170,170,170,120,Masters 2,B,M,Single-ply
DQ,Uwe Dörfert,1959,Germany,115.62,-185,-190,-190,,,120,Masters 2,B,M,Single-ply
DQ,Morten Kaland,1959,Norway,115.68,-240,-240,-240,,,120,Masters 2,B,M,Single-ply
DQ,Kevin Johnson,1954,USA,118.72,-225,-225,-225,,,120,Masters 2,B,M,Single-ply
1,Daniel Gaudreau,1960,USA,157.02,280.5,300.5,-318,300.5,300.5,120+,Masters 2,B,M,Single-ply
2,William Campbell,1957,USA,134.32,-250,250,272.5,272.5,272.5,120+,Masters 2,B,M,Single-ply
3,Jürgen Lochner,1959,Germany,147.04,-250,250,-260,250,250,120+,Masters 2,B,M,Single-ply
4,Renaldo Rossetti,1960,France,152.76,215,225,242.5,242.5,242.5,120+,Masters 2,B,M,Single-ply
5,Jan Dzieciatkowski,1956,Poland,138.72,240,-250,-250,240,240,120+,Masters 2,B,M,Single-ply
1,Takashi Kanaya,1948,Japan,58.44,125,130,-135,130,130,59,Masters 3,B,M,Single-ply
2,Guy Laurent,1950,France,58.44,102.5,107.5,-112.5,107.5,107.5,59,Masters 3,B,M,Single-ply
1,Claude Sitruk,1950,France,65.6,165,-170.5,170.5,170.5,170.5,66,Masters 3,B,M,Single-ply
2,Jules Pellegrino,1943,USA,65.34,137.5,140,145,145,145,66,Masters 3,B,M,Single-ply
3,Shigeki Yamamoto,1943,Japan,65.56,-140,-140,140,140,140,66,Masters 3,B,M,Single-ply
1,Yuji Kato,1948,Japan,72.2,162.5,170,175,175,175,74,Masters 3,B,M,Single-ply
2,Takeshi Monoe,1952,Japan,73.42,-160,-160,160,160,160,74,Masters 3,B,M,Single-ply
3,Michel Dernoncourt,1946,France,73.1,150,-155,-155,150,150,74,Masters 3,B,M,Single-ply
4,Antero Kauranen,1948,Finland,73.64,-140,140,-152.5,140,140,74,Masters 3,B,M,Single-ply
1,Susumu Otani,1952,Japan,82.34,180,190,-200,190,190,83,Masters 3,B,M,Single-ply
2,Daribay Ospanov,1949,Kazakhstan,81.28,155,-160,160,160,160,83,Masters 3,B,M,Single-ply
3,Malcolm Slinger,1945,Australia,82.16,150,-155,-155,150,150,83,Masters 3,B,M,Single-ply
4,Akio Fujimoto,1949,Japan,78.68,135,140,-150,140,140,83,Masters 3,B,M,Single-ply
DQ,Jim Klostergaard,1948,USA,82.68,-167.5,-167.5,-167.5,,,83,Masters 3,B,M,Single-ply
1,Arne Boe Kjell,1952,Norway,89.34,190,200,-210,200,200,93,Masters 3,B,M,Single-ply
2,Tilman Gallant,1948,Canada,91.08,170,177.5,182.5,182.5,182.5,93,Masters 3,B,M,Single-ply
3,Brian Kline,1950,USA,91.04,170,175,-180,175,175,93,Masters 3,B,M,Single-ply
4,Jiří Horník,1948,Czechia,90.74,150,-160,-175,150,150,93,Masters 3,B,M,Single-ply
5,Alain Boussery,1947,France,91.96,140,145,-147.5,145,145,93,Masters 3,B,M,Single-ply
6,Tapani Puhakka,1944,Finland,90.04,110,120,-145,120,120,93,Masters 3,B,M,Single-ply
7,Jiří Poutník,1946,Czechia,86.58,95,-115,-115,95,95,93,Masters 3,B,M,Single-ply
1,Gérard Oumailia,1951,France,103.54,170,190,192.5,192.5,192.5,105,Masters 3,B,M,Single-ply
2,Tom Collins,1946,UK,102.7,180,-187.5,190,190,190,105,Masters 3,B,M,Single-ply
3,Joseph Ferrantelli,1943,USA,103.1,150,165,-182.5,165,165,105,Masters 3,B,M,Single-ply
DQ,Steve Caldwell,1947,USA,100.56,-150,-150,-150,,,105,Masters 3,B,M,Single-ply
1,Robert Crawford,1951,USA,118.66,-175,175,-195,175,175,120,Masters 3,B,M,Single-ply
2,Michael Wood,1950,USA,108.7,135,-160,-175,135,135,120,Masters 3,B,M,Single-ply
1,Skip Regan,1952,USA,128.36,145,-235,-235,145,145,120+,Masters 3,B,M,Single-ply
2,Georg Boström,1947,Sweden,129.32,65,,,65,65,120+,Masters 3,B,M,Single-ply
1,Toshio Fujita,1935,Japan,64.8,90,95,-100,95,95,66,Masters 4,B,M,Single-ply
DQ,Ivan Zwick,1939,USA,65.02,-125,-125,-125,,,66,Masters 4,B,M,Single-ply
1,Manabu Ogata,1941,Japan,71.46,145,-150,150,150,150,74,Masters 4,B,M,Single-ply
2,Maka Boleslaw,1942,Poland,71.38,-137.5,140,145,145,145,74,Masters 4,B,M,Single-ply
3,Mike Lawson,1941,USA,66.2,105,112.5,-120,112.5,112.5,74,Masters 4,B,M,Single-ply
1,Daniel Reybrouck,1942,Belgium,81.2,140,-150.5,-150.5,140,140,83,Masters 4,B,M,Single-ply
1,Katsuji Kawabe,1942,Japan,92.16,-160,160,167.5,167.5,167.5,93,Masters 4,B,M,Single-ply
2,John Moore,1937,USA,90.5,100,107.5,-112.5,107.5,107.5,93,Masters 4,B,M,Single-ply
DQ,Bill Phillips,1938,USA,91.2,-175,-175,-175,,,93,Masters 4,B,M,Single-ply
1,Tomoko Miyamoto,1967,Japan,46.3,80,-85,87.5,87.5,87.5,47,Masters 1,B,F,Single-ply
2,Christine Lesellier,1963,France,45.62,75,80,-87.5,80,80,47,Masters 1,B,F,Single-ply
1,Anzhela Rodygina,1970,Russia,51.2,80,85,87.5,87.5,87.5,52,Masters 1,B,F,Single-ply
2,Nathalie Feraud,1967,France,47.1,75,80,85,85,85,52,Masters 1,B,F,Single-ply
3,Jennifer Smith,1970,USA,49.84,77.5,-82.5,-87.5,77.5,77.5,52,Masters 1,B,F,Single-ply
1,Tomoko Sakamaki,1965,Japan,54.84,105,110,-122.5,110,110,57,Masters 1,B,F,Single-ply
2,Ann Kristin Olsen,1967,Norway,56,95,105,-112.5,105,105,57,Masters 1,B,F,Single-ply
3,Tammy Cutrona,1966,USA,52.62,72.5,77.5,-80,77.5,77.5,57,Masters 1,B,F,Single-ply
1,Isabelle Iliev,1967,France,62.04,110,115,120,120,120,63,Masters 1,B,F,Single-ply
2,Danna Snow,1969,USA,57.9,80,85,-90,85,85,63,Masters 1,B,F,Single-ply
1,Priscilla Ribic,1972,USA,71.64,130,-142.5,-158,130,130,72,Masters 1,B,F,Single-ply
2,Satu Luoto,1969,Finland,69.4,80,-122.5,-130,80,80,72,Masters 1,B,F,Single-ply
1,Liane Blyn,1972,USA,78.22,155,-162.5,-170,155,155,84,Masters 1,B,F,Single-ply
2,Adeline Ulvang,1966,USA,82.22,72.5,77.5,80,80,80,84,Masters 1,B,F,Single-ply
3,Virve Ilves,1970,Finland,77.54,40,-75,77.5,77.5,77.5,84,Masters 1,B,F,Single-ply
1,Deborah Ferrell,1964,USA,111.5,165,177.5,187.5,187.5,187.5,84+,Masters 1,B,F,Single-ply
2,Joanne Schaefer,1967,Netherlands,106.44,175,180,185,185,185,84+,Masters 1,B,F,Single-ply
3,Leila Duhem,1963,France,97.42,150,160,167.5,167.5,167.5,84+,Masters 1,B,F,Single-ply
4,Mami Komatsu,1969,Japan,100.42,70,105,-107.5,105,105,84+,Masters 1,B,F,Single-ply
1,Vuokko Viitasaari,1954,Finland,46.76,65,70,-75,70,70,47,Masters 2,B,F,Single-ply
2,Brigitte Landon,1961,France,46.97,62.5,65,-72.5,65,65,47,Masters 2,B,F,Single-ply
1,Fumie Mizuno,1959,Japan,51.14,80,85,-90,85,85,52,Masters 2,B,F,Single-ply
2,Diann Nelson,1955,USA,50.9,82.5,-85,-90,82.5,82.5,52,Masters 2,B,F,Single-ply
1,Irina Bekhtereva,1959,Russia,54.14,-80,-80,80,80,80,57,Masters 2,B,F,Single-ply
2,Lizz D'Entremont,1962,USA,55.66,80,-82.5,-82.5,80,80,57,Masters 2,B,F,Single-ply
3,Lucette Raffier,1957,France,55.04,75,77.5,-80,77.5,77.5,57,Masters 2,B,F,Single-ply
1,Koley Hockeborn,1960,USA,57.48,-102.5,-102.5,107.5,107.5,107.5,63,Masters 2,B,F,Single-ply
2,Patricia Maciejewski,1959,France,61.88,102.5,107.5,-110,107.5,107.5,63,Masters 2,B,F,Single-ply
3,Leigh Haines,1960,USA,60.72,70,75,77.5,77.5,77.5,63,Masters 2,B,F,Single-ply
1,Regina Haas,1962,Germany,71.6,122.5,-130,-138,122.5,122.5,72,Masters 2,B,F,Single-ply
2,Donna Marts,1960,USA,70.82,105,110,-115,110,110,72,Masters 2,B,F,Single-ply
3,Evelyne Herbin,1956,France,63.86,82.5,87.5,90,90,90,72,Masters 2,B,F,Single-ply
1,Hana Takáčová,1954,Czechia,83.16,135,-142.5,-150.5,135,135,84,Masters 2,B,F,Single-ply
2,Patricia Boord,1955,USA,80.14,55,60,62.5,62.5,62.5,84,Masters 2,B,F,Single-ply
1,Merja Mynttinen,1958,Finland,91.88,117.5,122.5,127.5,127.5,127.5,84+,Masters 2,B,F,Single-ply
2,Paullete Calhoun,1958,USA,104.44,102.5,107.5,120,120,120,84+,Masters 2,B,F,Single-ply
1,Françoise Heligon,1943,France,45.68,55,60,-62.5,60,60,47,Masters 3,B,F,Single-ply
1,Chiyomi Sawa,1949,Japan,62.68,-100,100,111,111,111,63,Masters 3,B,F,Single-ply
2,Helen Sauer,1952,USA,62.82,-92.5,95,-102.5,95,95,63,Masters 3,B,F,Single-ply
3,Helen White,1945,USA,57.8,60,-67.5,-67.5,60,60,63,Masters 3,B,F,Single-ply
DQ,Ellen Bittner,1948,USA,65.22,-52.5,-52.5,-52.5,,,72,Masters 3,B,F,Single-ply
1,Martine Laurent,1951,France,76.82,75,80,-85,80,80,84,Masters 3,B,F,Single-ply
1,Joan Schmidt,1940,USA,45.56,32.5,35,37.5,37.5,37.5,47,Masters 4,B,F,Single-ply
1,Bebe Burns,1942,USA,47.64,37.5,40,42.5,42.5,42.5,52,Masters 4,B,F,Single-ply
1,Sharon Hernstadt,1939,USA,69.26,50,-52.5,-52.5,50,50,72,Masters 4,B,F,Single-ply
1,Maria Pares,1931,USA,80.5,-25,25,-27.5,25,25,84,Masters 4,B,F,Single-ply
DQ,Regina Hackney,1939,USA,82.14,-65,-65,-65,,,84,Masters 4,B,F,Single-ply
