Name,Sex,State,WeightClassKg,BodyweightKg,Division,Equipment,Best3SquatKg,Best3BenchKg,Best3DeadliftKg,TotalKg,Event,Tested,Place
Laura Delay,F,NY,67.5,65.14,F_OEM_AAPF,Multi-ply,65,50,117.5,232.5,SBD,Yes,2
Elaine Neal,F,NH,67.5,66.86,F_OEM_AAPF,Multi-ply,80,37.5,125,242.5,SBD,Yes,1
Elaine Neal,F,NH,67.5,66.86,F_MEM_4_AAPF,Multi-ply,80,37.5,125,242.5,SBD,Yes,1
Kim Furlong,F,NH,75,71.94,F_MEM_1_AAPF,Multi-ply,92.5,62.5,137.5,292.5,SBD,Yes,1
Clint Merrill,M,ME,75,74.93,M_MEM_5_AAPF,Multi-ply,142.5,102.5,207.5,452.5,SBD,Yes,1
Kyle Cousins,M,CT,82.5,79.92,M_OEM_AAPF,Multi-ply,215,157.5,182.5,555,SBD,Yes,1
Ray Cross,M,MA,125,116.66,M_MEM_5_AAPF,Multi-ply,172.5,142.5,195,510,SBD,Yes,1
