Place,WeightClassKg,Sex,Division,Name,BirthYear,Country,Best3SquatKg,Best3BenchKg,Best3DeadliftKg,TotalKg,Event,Equipment
1,52,M,Juniors,Thio Seng,1965,Indonesia,195,107.5,225,527.5,SBD,Single-ply
2,52,M,Juniors,P.K. Srivastava,1971,India,172.5,95,182.5,450,SBD,Single-ply
3,52,M,Juniors,Joachim Mödl,1966,West Germany,160,82.5,182.5,425,SBD,Single-ply
4,52,M,Juniors,Thierry Brunat,1967,France,140,90,175,405,SBD,Single-ply
5,52,M,Juniors,Anthony Heuzé,1965,France,135,92.5,170,397.5,SBD,Single-ply
DQ,52,M,Juniors,Phil Richard,1971,UK,180,100,,,SBD,Single-ply
1,56,M,Juniors,Ventje Male,1968,Indonesia,215,130.5,235,580,SBD,Single-ply
2,56,M,Juniors,Fabio Ambrosin,1966,Italy,195,100,212.5,507.5,SBD,Single-ply
3,56,M,Juniors,Magnus Carlsson,1967,Sweden,230,130,115,475,SBD,Single-ply
4,56,M,Juniors,Asko Sirviö,1968,Finland,165,120,180,465,SBD,Single-ply
5,56,M,Juniors,Jonny Iversen,1969,Denmark,147.5,92.5,172.5,412.5,SBD,Single-ply
6,56,M,Juniors,Peter Klutsch,1965,Belgium,152.5,72.5,175,400,SBD,Single-ply
7,56,M,Juniors,David Kent,1966,Australia,140,107.5,150,397.5,SBD,Single-ply
8,56,M,Juniors,Cord Fries,1966,Canada,160,80,145,385,SBD,Single-ply
1,60,M,Juniors,Nanda Talambanua,1965,Indonesia,240,110,270,620,SBD,Single-ply
2,60,M,Juniors,Sawant Sawant,1966,India,205,120,250,575,SBD,Single-ply
3,60,M,Juniors,Wil Taylor,1969,USA,220,112.5,220,552.5,SBD,Single-ply
4,60,M,Juniors,Glenn Merrit,1970,UK,210.5,105,225,540,SBD,Single-ply
5,60,M,Juniors,Daniele Cavalli,1965,Italy,185,132.5,220,537.5,SBD,Single-ply
6,60,M,Juniors,Ola Olofsson,1965,Sweden,190,117.5,190,497.5,SBD,Single-ply
7,60,M,Juniors,Rune Berger,1967,Norway,180,105,182.5,467.5,SBD,Single-ply
8,60,M,Juniors,Salvatore Amato,1966,West Germany,182.5,97.5,185,465,SBD,Single-ply
9,60,M,Juniors,Pieter van de Vijfeijke,1966,Netherlands,155,97.5,210,462.5,SBD,Single-ply
10,60,M,Juniors,Loris Ferrara,1966,Italy,160,85,215,460,SBD,Single-ply
11,60,M,Juniors,Steven Sanders,1967,Belgium,175,100,170,445,SBD,Single-ply
12,60,M,Juniors,Antonio Vico,1966,Switzerland,150,92.5,190,432.5,SBD,Single-ply
DQ,60,M,Juniors,Michel Bulsei,1966,Belgium,,,,,SBD,Single-ply
DQ,60,M,Juniors,Jari Forssten,1965,Finland,,,,,SBD,Single-ply
1,67.5,M,Juniors,Petru Triharyanto,1970,Indonesia,270,140,275,685,SBD,Single-ply
2,67.5,M,Juniors,Kader Baali,1968,France,227.5,150,255,632.5,SBD,Single-ply
3,67.5,M,Juniors,Antonio Dia,1965,Italy,227.5,137.5,262.5,627.5,SBD,Single-ply
4,67.5,M,Juniors,Pekka Anttila,1965,Finland,245,117.5,247.5,610,SBD,Single-ply
5,67.5,M,Juniors,K. Arokyadas,1967,India,222.5,127.5,252.5,602.5,SBD,Single-ply
6,67.5,M,Juniors,Ferdi Pesendörfer,1967,Austria,235,130,235,600,SBD,Single-ply
7,67.5,M,Juniors,Ari Hokkanen,1965,Finland,217.5,130,240,587.5,SBD,Single-ply
8,67.5,M,Juniors,Øysten Ruyter,1965,Norway,222.5,145,210,577.5,SBD,Single-ply
9,67.5,M,Juniors,Tim Litt,1967,UK,232.5,125,215,572.5,SBD,Single-ply
10,67.5,M,Juniors,Patr Heckelmann,1969,West Germany,215,110,240,565,SBD,Single-ply
11,67.5,M,Juniors,Tony Karasmanis,1967,Canada,192.5,137.5,227.5,557.5,SBD,Single-ply
12,67.5,M,Juniors,Andy van der Lek,1966,Netherlands,200,125,230,555,SBD,Single-ply
13,67.5,M,Juniors,Stefano Bettati,1968,Italy,222.5,87.5,227.5,537.5,SBD,Single-ply
14,67.5,M,Juniors,Fidel de Oliveira,1965,Netherlands,200,125,210,535,SBD,Single-ply
15,67.5,M,Juniors,Adam Auerbach,1967,USA,177.5,120,215,512.5,SBD,Single-ply
16,67.5,M,Juniors,Antonio Pratillo,1965,Switzerland,175,117.5,190,482.5,SBD,Single-ply
DQ,67.5,M,Juniors,Jorge Telechea,1965,Uruguay,225,152.5,,,SBD,Single-ply
DQ,67.5,M,Juniors,Liam Beville,1965,Ireland,,,,,SBD,Single-ply
DQ,67.5,M,Juniors,Mikael Folkesson,1965,Sweden,,,,,SBD,Single-ply
DQ,67.5,M,Juniors,Remy Fortier,1967,Canada,,,,,SBD,Single-ply
DQ,67.5,M,Juniors,Krister Renman,1966,Sweden,,,,,SBD,Single-ply
1,75,M,Juniors,Jack Tice,1966,USA,260,172.5,272.5,705,SBD,Single-ply
2,75,M,Juniors,Ari Virtanen,1965,Finland,240,145,265,650,SBD,Single-ply
3,75,M,Juniors,Jari Nurmi,1966,Finland,210,147.5,265,622.5,SBD,Single-ply
4,75,M,Juniors,Shan Sharma,1966,India,250,117.5,250,617.5,SBD,Single-ply
5,75,M,Juniors,Stefan Kramer,1965,West Germany,220,147.5,240,607.5,SBD,Single-ply
6,75,M,Juniors,Olivier Sarrazzin,1967,France,220,127.5,232.5,580,SBD,Single-ply
7,75,M,Juniors,Franz van Haaren,1966,Netherlands,220,117.5,240,577.5,SBD,Single-ply
8,75,M,Juniors,Dirk Van der Heyden,1968,Belgium,210,117.5,245,572.5,SBD,Single-ply
9,75,M,Juniors,Giovanni Ritucci,1966,Switzerland,220,105,245,570,SBD,Single-ply
10,75,M,Juniors,Gerhard Kilcher,1966,Switzerland,225,125,215,565,SBD,Single-ply
1,82.5,M,Juniors,Kjell Kaspersen,1968,Norway,310,155,275,740,SBD,Single-ply
2,82.5,M,Juniors,Damiano Crocitto,1969,Italy,270,150,292.5,712.5,SBD,Single-ply
3,82.5,M,Juniors,Peter Kyriakos,1966,Australia,265,155,272.5,692.5,SBD,Single-ply
4,82.5,M,Juniors,Tor-Kjeld Jevne,1966,Norway,260,157.5,270,687.5,SBD,Single-ply
5,82.5,M,Juniors,Jari Perälä,1969,Finland,260,160,265,685,SBD,Single-ply
6,82.5,M,Juniors,Eugene Buys,1966,Netherlands,255,140,277.5,672.5,SBD,Single-ply
7,82.5,M,Juniors,Frances Del Sante,1968,Italy,272.5,122.5,267.5,662.5,SBD,Single-ply
8,82.5,M,Juniors,Nikolas Holsting,1966,Denmark,257.5,127.5,275,660,SBD,Single-ply
9,82.5,M,Juniors,Jürgen Hoffart,1966,West Germany,245,152.5,250,647.5,SBD,Single-ply
10,82.5,M,Juniors,Jens Jensen,1967,Denmark,210,155,280,645,SBD,Single-ply
11,82.5,M,Juniors,Patrick Sileghem,1968,Belgium,240,135,260,635,SBD,Single-ply
12,82.5,M,Juniors,Andre Ptak,1966,France,245,142.5,245,632.5,SBD,Single-ply
13,82.5,M,Juniors,Dean Padley,1965,UK,240,132.5,252.5,625,SBD,Single-ply
14,82.5,M,Juniors,Metaud Boufraine,1966,France,227.5,145,250,622.5,SBD,Single-ply
15,82.5,M,Juniors,Peter Foster,1969,Canada,250,122.5,245,617.5,SBD,Single-ply
16,82.5,M,Juniors,Steve Spellman,1966,UK,230,152.5,225,607.5,SBD,Single-ply
17,82.5,M,Juniors,David Cretzon,1967,Ireland,215,130,240,585,SBD,Single-ply
DQ,82.5,M,Juniors,Est Della Quercia,1965,Uruguay,,,,,SBD,Single-ply
1,90,M,Juniors,Carl J. Nordberg,1965,Sweden,300,182.5,275,757.5,SBD,Single-ply
2,90,M,Juniors,Carl Olav Christoffersen,1968,Norway,292.5,180,282.5,755,SBD,Single-ply
3,90,M,Juniors,Jan Seghers,1966,Belgium,255,167.5,305,727.5,SBD,Single-ply
4,90,M,Juniors,Ari Hujanen,1966,Finland,275,157.5,275,707.5,SBD,Single-ply
5,90,M,Juniors,Andrew Rodney,1965,UK,270,150,285,705,SBD,Single-ply
6,90,M,Juniors,Carlo Ferrari,1970,Italy,265,145,280,690,SBD,Single-ply
7,90,M,Juniors,Janne Toivanen,1966,Finland,250,162.5,277.5,690,SBD,Single-ply
8,90,M,Juniors,Marie Marie-Sainte,1968,France,240,187.5,260,687.5,SBD,Single-ply
9,90,M,Juniors,Pierre Lapostolle,1968,France,250,137.5,300,687.5,SBD,Single-ply
10,90,M,Juniors,Richard Thompson,1968,USA,237.5,160,267.5,665,SBD,Single-ply
11,90,M,Juniors,Olaf Gummesson,1965,West Germany,255,145,262.5,662.5,SBD,Single-ply
12,90,M,Juniors,Gunna Hjartarsson,1966,Iceland,250,160,250,660,SBD,Single-ply
13,90,M,Juniors,Franz Leberwurst,1969,Austria,255,145,260,660,SBD,Single-ply
14,90,M,Juniors,Fröde Gundersen #1,1967,Norway,245,150,260,655,SBD,Single-ply
15,90,M,Juniors,Kevin Lee,1965,Australia,240,135,240,615,SBD,Single-ply
16,90,M,Juniors,Auðunn Jónsson,1972,Iceland,215,112.5,225,552.5,SBD,Single-ply
1,100,M,Juniors,Mark Cullimore,1965,UK,300,185,300,785,SBD,Single-ply
2,100,M,Juniors,Kari Pötrönen,1965,Finland,280,180,307.5,767.5,SBD,Single-ply
3,100,M,Juniors,Anton Tucek,1966,Austria,300,175,290,765,SBD,Single-ply
4,100,M,Juniors,Ulf Tedemark,1965,Sweden,275,172.5,280,727.5,SBD,Single-ply
5,100,M,Juniors,Nic Burich,1968,USA,267.5,180,277.5,725,SBD,Single-ply
6,100,M,Juniors,Ralf Holler,1965,West Germany,270,175,272.5,717.5,SBD,Single-ply
7,100,M,Juniors,Peter Sutton,1965,UK,280,165,272.5,717.5,SBD,Single-ply
8,100,M,Juniors,Frank Engel,1966,Luxembourg,260,142.5,267.5,670,SBD,Single-ply
9,100,M,Juniors,Shawn Lakusta,1965,Canada,225,117.5,245,587.5,SBD,Single-ply
DQ,100,M,Juniors,Arnold Bates,1967,USA,267.5,165,,,SBD,Single-ply
1,110,M,Juniors,Jamie Barr,1965,UK,295,170,310,775,SBD,Single-ply
2,110,M,Juniors,Wulf Kronemann,1967,West Germany,285,185,277.5,747.5,SBD,Single-ply
3,110,M,Juniors,Arto Turunen,1965,Finland,275,180,290,745,SBD,Single-ply
4,110,M,Juniors,Joseph Kessel,1967,USA,260,182.5,252.5,695,SBD,Single-ply
5,110,M,Juniors,Peter Krajina,1965,Australia,260,160,260,680,SBD,Single-ply
DQ,110,M,Juniors,Rasmus Sjöwall,1965,Sweden,280,,,,SBD,Single-ply
DQ,110,M,Juniors,Terry Fourcade,1967,USA,265,,,,SBD,Single-ply
DQ,110,M,Juniors,Garry Christie,1967,UK,,,,,SBD,Single-ply
1,125,M,Juniors,Ralf Gierz,1966,West Germany,325,217.5,338,880,SBD,Single-ply
2,125,M,Juniors,Wayne Buck,1966,UK,310,215,320,845,SBD,Single-ply
3,125,M,Juniors,Greg Wilson #1,1966,Australia,300,200,305,805,SBD,Single-ply
4,125,M,Juniors,John Bryliarsen,1965,Denmark,292.5,205,285,782.5,SBD,Single-ply
5,125,M,Juniors,Patrick Morvan,1966,France,280,180,280,740,SBD,Single-ply
6,125,M,Juniors,Klaus Workuka,1965,West Germany,275,192.5,270,737.5,SBD,Single-ply
7,125,M,Juniors,Michael van Leeuwen,1966,Netherlands,267.5,165,302.5,735,SBD,Single-ply
8,125,M,Juniors,David McCaskill,1967,USA,262.5,155,275,692.5,SBD,Single-ply
9,125,M,Juniors,David Frattoroli,1966,Ireland,260,160,242.5,662.5,SBD,Single-ply
1,125+,M,Juniors,Karl Saliger,1969,Austria,325,215,305,845,SBD,Single-ply
2,125+,M,Juniors,Torfi Ólafsson,1965,Iceland,330,175,337.5,842.5,SBD,Single-ply
3,125+,M,Juniors,Sean Kaufmann,1965,Canada,330,182.5,260,772.5,SBD,Single-ply
4,125+,M,Juniors,Robert Bierschbach,1968,USA,305,157.5,275,737.5,SBD,Single-ply
5,125+,M,Juniors,E. Spernovalasilis,1969,Australia,270,117.5,220,607.5,SBD,Single-ply
