Division,WeightClassKg,Place,Name,Team,BodyweightKg,Best3SquatKg,Best3BenchKg,Best3DeadliftKg,TotalKg,Equipment,Event,Sex
Boys,51.71,1,Derek Valadez,Center Point,51.39,104.33,58.97,122.47,285.76,Single-ply,SBD,M
Boys,51.71,2,Tyler Williams,Center Point,45.99,79.38,45.36,79.38,204.12,Single-ply,SBD,M
Boys,51.71,DQ,Tony Garza,Natalia,49.51,95.25,,,,Single-ply,SBD,M
Boys,55.79,1,Eric Lopez,Castroville Medina Valley,55.38,172.37,88.45,183.7,444.52,Single-ply,SBD,M
Boys,55.79,2,Donovan Hawkins,Natalia,54.7,156.49,72.57,138.35,367.41,Single-ply,SBD,M
Boys,59.87,1,Diego Morales,Castroville Medina Valley,59.47,190.51,113.4,195.04,498.95,Single-ply,SBD,M
Boys,59.87,2,Cristian Martinez,Hondo,58.11,147.42,86.18,170.1,403.7,Single-ply,SBD,M
Boys,59.87,3,Wyatt Owens,Natalia,59.15,122.47,65.77,133.81,322.05,Single-ply,SBD,M
Boys,59.87,4,Noah Gilkey,Natalia,57.33,120.2,65.77,129.27,315.25,Single-ply,SBD,M
Boys,59.87,5,Marco Morales,Natalia,58.97,111.13,68.04,102.06,281.23,Single-ply,SBD,M
Boys,67.13,1,Fabian Bazan,Castroville Medina Valley,64,229.06,129.27,238.14,596.47,Single-ply,SBD,M
Boys,67.13,2,Joshua Bazan,Castroville Medina Valley,66.27,197.31,120.2,201.85,519.36,Single-ply,SBD,M
Boys,67.13,3,Rafael Garza,Poteet,67,174.63,106.59,174.63,455.86,Single-ply,SBD,M
Boys,67.13,4,Eladio Arreola,Center Point,65.36,156.49,102.06,142.88,401.43,Single-ply,SBD,M
Boys,67.13,5,Chris Saldana,Natalia,66.32,156.49,83.91,156.49,396.89,Single-ply,SBD,M
Boys,67.13,6,Rafael Pachecho,Lytle,60.37,127.01,86.18,136.08,349.27,Single-ply,SBD,M
Boys,67.13,7,Roberto Hernandez,Natalia,66.77,111.13,63.5,120.2,294.84,Single-ply,SBD,M
Boys,74.84,1,Adrian Vasquez,Natalia,73.21,210.92,102.06,183.7,496.68,Single-ply,SBD,M
Boys,74.84,2,Sammy Bustamante,Center Point,69.49,170.1,102.06,156.49,428.64,Single-ply,SBD,M
Boys,74.84,3,Elijah Banda,Natalia,72.03,179.17,102.06,142.88,424.11,Single-ply,SBD,M
Boys,74.84,4,Cecil Olivarri,Lytle,72.89,158.76,72.57,183.7,415.04,Single-ply,SBD,M
Boys,74.84,5,Jason Vega,Lytle,73.98,124.74,108.86,154.22,387.82,Single-ply,SBD,M
Boys,74.84,6,JR Bustamante,Center Point,71.71,151.95,70.31,151.95,374.21,Single-ply,SBD,M
Boys,74.84,7,Landon McDole,Natalia,72.03,129.27,90.72,138.35,358.34,Single-ply,SBD,M
Boys,74.84,8,Ivan Reyna,Lytle,70.35,147.42,61.23,142.88,351.53,Single-ply,SBD,M
Boys,74.84,9,Omar Martinez,Center Point,73.71,133.81,72.57,136.08,342.46,Single-ply,SBD,M
Boys,74.84,10,Joe Mendoza,Center Point,70.35,115.67,58.97,129.27,303.91,Single-ply,SBD,M
Boys,82.1,1,Nemencio Tijerina,Poteet,81.24,183.7,124.74,183.7,492.15,Single-ply,SBD,M
Boys,82.1,2,Haiden Hass,Center Point,80.38,188.24,92.99,183.7,464.93,Single-ply,SBD,M
Boys,82.1,3,Ethan Acevedo,Poteet,81.33,183.7,92.99,183.7,460.4,Single-ply,SBD,M
Boys,82.1,4,Fabian Ruiz,Natalia,80.33,192.78,102.06,142.88,437.72,Single-ply,SBD,M
Boys,82.1,5,Issac Rios,Natalia,80.35,179.17,102.06,156.49,437.72,Single-ply,SBD,M
Boys,82.1,6,Austin Lyman,Center Point,76.25,147.42,81.65,147.42,376.48,Single-ply,SBD,M
Boys,82.1,7,Eddie Flemma,Center Point,77.84,90.72,63.5,92.99,247.21,Single-ply,SBD,M
Boys,89.81,1,Seth Bullard,Castroville Medina Valley,88.04,204.12,136.08,192.78,532.97,Single-ply,SBD,M
Boys,89.81,2,Zach Lawyer,Castroville Medina Valley,88.04,183.7,102.06,192.78,478.54,Single-ply,SBD,M
Boys,89.81,3,Jacob Navarro,Natalia,84.41,201.85,95.25,163.29,460.4,Single-ply,SBD,M
Boys,89.81,4,Abel Bustamante,Center Point,86.36,190.51,90.72,174.63,455.86,Single-ply,SBD,M
Boys,89.81,5,Jake Laque,Center Point,89.4,188.24,97.52,165.56,451.32,Single-ply,SBD,M
Boys,89.81,6,Sean Sanchez,Natalia,86.55,163.29,90.72,145.15,399.16,Single-ply,SBD,M
Boys,89.81,7,Josh Munoz,Castroville Medina Valley,86.45,140.61,79.38,151.95,371.95,Single-ply,SBD,M
Boys,99.79,1,Moses Carrasco,Poteet,98.57,272.16,147.42,249.48,669.05,Single-ply,SBD,M
Boys,99.79,2,Michael Martinez,Natalia,96.66,249.48,127.01,201.85,578.33,Single-ply,SBD,M
Boys,99.79,3,Jeremiah Gomez,Natalia,92.71,183.7,115.67,201.85,501.22,Single-ply,SBD,M
Boys,99.79,4,Aaron Roldan,Hondo,90.22,156.49,102.06,136.08,394.63,Single-ply,SBD,M
Boys,99.79,5,Alexis Hernandez,Center Point,98.66,129.27,79.38,147.42,356.07,Single-ply,SBD,M
Boys,109.77,1,Geo Villafane,Castroville Medina Valley,107.41,272.16,147.42,238.14,657.71,Single-ply,SBD,M
Boys,109.77,2,Uriel Arellano,Natalia,109.77,226.8,188.24,201.85,616.89,Single-ply,SBD,M
Boys,109.77,3,Dustin Soto,Natalia,102.97,197.31,122.47,201.85,521.63,Single-ply,SBD,M
Boys,109.77,4,Isaiah Sanchez,Natalia,104.42,210.92,106.59,201.85,519.36,Single-ply,SBD,M
Boys,109.77,5,Kevin Ceineceros,Center Point,104.37,192.78,111.13,183.7,487.61,Single-ply,SBD,M
Boys,109.77,6,Diego Hernandez,Natalia,108.45,192.78,106.59,167.83,467.2,Single-ply,SBD,M
Boys,109.77,7,Reese Simpson,Hondo,102.87,165.56,83.91,127.01,376.48,Single-ply,SBD,M
Boys,109.77,8,Eric Carrijo,Hondo,101.7,124.74,56.7,106.59,288.03,Single-ply,SBD,M
Boys,124.74,1,Paul Billalobos,Natalia,122.97,256.28,138.35,201.85,596.47,Single-ply,SBD,M
Boys,124.74,2,Paul Zertuche,Castroville Medina Valley,116.18,183.7,131.54,195.04,510.29,Single-ply,SBD,M
Boys,124.74,3,Jayden Miller,Poteet,116.17,151.95,129.27,188.24,469.47,Single-ply,SBD,M
Boys,124.74+,1,Matt Graces,Castroville Medina Valley,191.1,272.16,158.76,190.51,621.42,Single-ply,SBD,M
Boys,124.74+,2,Mike San Miguel,Center Point,127.5,183.7,102.06,183.7,469.47,Single-ply,SBD,M
Boys,,NS,Micheal Haese,Center Point,,,,,,Single-ply,SBD,M
Boys,,NS,Jason Hinojosa-Ramirez,Castroville Medina Valley,,,,,,Single-ply,SBD,M
Boys,,NS,Raul Mata,Poteet,,,,,,Single-ply,SBD,M
Boys,,NS,Quen Syma,Lytle,,,,,,Single-ply,SBD,M
Boys,,NS,Josh DelTorro,Lytle,,,,,,Single-ply,SBD,M
Boys,,NS,Stephan Arreola,Center Point,,,,,,Single-ply,SBD,M
