Division,WeightClassKg,Place,Name,Team,BodyweightKg,Best3SquatKg,Best3BenchKg,Best3DeadliftKg,TotalKg,Equipment,Event,Sex
Boys,51.71,1,Jason Ramirez,Levelland,46.95,122.47,72.57,111.13,306.17,Single-ply,SBD,M
Boys,51.71,2,Alexis Ramos,Perryton,51.71,95.25,45.36,102.06,242.67,Single-ply,SBD,M
Boys,51.71,3,Shaquorie Butler,Canyon Randall,50.12,74.84,58.97,95.25,229.06,Single-ply,SBD,M
Boys,51.71,4,Justin Dyck,Muleshoe,50.76,90.72,54.43,79.38,224.53,Single-ply,SBD,M
Boys,51.71,5,Nathan Rendon,Levelland,49.99,72.57,52.16,97.52,222.26,Single-ply,SBD,M
Boys,51.71,6,Ethan Martinez,Wolfforth Frenship,50.21,63.5,43.09,79.38,185.97,Single-ply,SBD,M
Boys,51.71,DQ,Hunter Penrod,Sudan,49.85,79.38,,,,Single-ply,SBD,M
Boys,55.79,1,Bryan Ordaz,Dumas,55.47,145.15,97.52,147.42,390.09,Single-ply,SBD,M
Boys,55.79,2,Cesar Ramirez,Perryton,55.79,145.15,68.04,145.15,358.34,Single-ply,SBD,M
Boys,55.79,3,Sammy Hernandez,Perryton,54.16,133.81,70.31,142.88,347,Single-ply,SBD,M
Boys,55.79,4,Brian Tejeda,Perryton,54.16,113.4,70.31,142.88,326.59,Single-ply,SBD,M
Boys,55.79,5,Dominique Sterling,Seagraves,51.94,120.2,68.04,129.27,317.51,Single-ply,SBD,M
Boys,55.79,6,Uriel Vasquez,Muleshoe,55.66,124.74,58.97,113.4,297.1,Single-ply,SBD,M
Boys,59.87,1,Brennan Riker,Post,57.38,172.37,92.99,154.22,419.57,Single-ply,SBD,M
Boys,59.87,2,Derek Barron,Muleshoe,59.06,170.1,72.57,158.76,401.43,Single-ply,SBD,M
Boys,59.87,3,Nathan Urioste,Canyon Randall,59.83,142.88,92.99,151.95,387.82,Single-ply,SBD,M
Boys,59.87,4,Uriel Ibanez,Dumas,59.87,136.08,90.72,158.76,385.55,Single-ply,SBD,M
Boys,59.87,5,Alexis Delgado,Plainview,59.78,147.42,65.77,151.95,365.14,Single-ply,SBD,M
Boys,59.87,6,Isaac Castro,Perryton,56.93,120.2,79.38,151.95,351.53,Single-ply,SBD,M
Boys,59.87,7,Jermain Stotts,Wolfforth Frenship,59.38,70.31,61.23,113.4,244.94,Single-ply,SBD,M
Boys,67.13,1,Kenny Ramirez,Perryton,67.09,174.63,95.25,188.24,458.13,Single-ply,SBD,M
Boys,67.13,2,Damian Mendoza,Dumas,65.77,158.76,106.59,188.24,453.59,Single-ply,SBD,M
Boys,67.13,3,Max Foster,Canyon Randall,61.19,142.88,92.99,204.12,439.98,Single-ply,SBD,M
Boys,67.13,4,Jose Chavira,Dumas,67.09,129.27,111.13,158.76,399.16,Single-ply,SBD,M
Boys,67.13,5,Callen Cannon,Sudan,66.9,136.08,97.52,142.88,376.48,Single-ply,SBD,M
Boys,67.13,6,Nathan Meraz,Canyon Randall,62.37,124.74,102.06,145.15,371.95,Single-ply,SBD,M
Boys,67.13,7,Jose Flores,Seagraves,66.95,117.93,68.04,136.08,322.05,Single-ply,SBD,M
Boys,67.13,8,Matthew Landin,Wolfforth Frenship,63.64,65.77,54.43,113.4,233.6,Single-ply,SBD,M
Boys,67.13,DQ,Adryen Menchaca,Wolfforth Frenship,67.13,,,,,Single-ply,SBD,M
Boys,67.13,DQ,Izaih Landa,Post,67.13,,,,,Single-ply,SBD,M
Boys,74.84,1,Brandon Sigala,Levelland,72.12,201.85,117.93,208.65,528.44,Single-ply,SBD,M
Boys,74.84,2,Ernest Godino,Plainview,72.71,174.63,108.86,172.37,455.86,Single-ply,SBD,M
Boys,74.84,3,Stefano Espejo,Plainview,74.8,176.9,104.33,156.49,437.72,Single-ply,SBD,M
Boys,74.84,4,Julian Aragon,Plainview,70.17,167.83,97.52,165.56,430.91,Single-ply,SBD,M
Boys,74.84,5,Hector Borrunda,Dumas,69.17,147.42,99.79,165.56,412.77,Single-ply,SBD,M
Boys,74.84,6,Preston Mullins,Canyon Randall,72.98,142.88,79.38,170.1,392.36,Single-ply,SBD,M
Boys,74.84,7,Josh Easley,Shallowater,70.67,156.49,83.91,142.88,383.29,Single-ply,SBD,M
Boys,74.84,8,Nick Quintana,Post,74.57,142.88,86.18,140.61,369.68,Single-ply,SBD,M
Boys,74.84,9,Jacob Lewis,Canyon Randall,74.84,142.88,83.91,142.88,369.68,Single-ply,SBD,M
Boys,74.84,10,Landon Pevey,Post,71.35,142.88,74.84,124.74,342.46,Single-ply,SBD,M
Boys,74.84,11,Christian Smith,Wolfforth Frenship,72.62,106.59,70.31,138.35,315.25,Single-ply,SBD,M
Boys,74.84,12,Luke Pompa,Levelland,73.3,104.33,61.23,102.06,267.62,Single-ply,SBD,M
Boys,74.84,DQ,Callin Casselberry,Hedley,69.04,113.4,,,,Single-ply,SBD,M
Boys,74.84,DQ,Matt Fabela,Muleshoe,74.84,,,,,Single-ply,SBD,M
Boys,74.84,DQ,Ryder Gilbert,Wolfforth Frenship,74.84,,,,,Single-ply,SBD,M
Boys,74.84,DQ,Ethan Fox,Post,74.84,,,,,Single-ply,SBD,M
Boys,82.1,1,Kingsley Rodriguez,Seagraves,80.38,222.26,133.81,247.21,603.28,Single-ply,SBD,M
Boys,82.1,2,Skyler Davis,Levelland,79.61,174.63,117.93,233.6,526.17,Single-ply,SBD,M
Boys,82.1,3,Petey Martinez,Perryton,81.65,201.85,117.93,206.38,526.17,Single-ply,SBD,M
Boys,82.1,4,Marco Godino,Plainview,81.74,190.51,104.33,197.31,492.15,Single-ply,SBD,M
Boys,82.1,5,Eric Baucom,Canyon Randall,80.83,136.08,72.57,142.88,351.53,Single-ply,SBD,M
Boys,82.1,6,Nathan King,Sudan,82.05,129.27,81.65,136.08,347,Single-ply,SBD,M
Boys,82.1,7,Isiah Espinoza,Sudan,79.29,129.27,56.7,115.67,301.64,Single-ply,SBD,M
Boys,82.1,DQ,Marcos Del Fierro,Canyon Randall,77.66,,,,,Single-ply,SBD,M
Boys,82.1,DQ,Domnic Navarez,Canyon Randall,80.83,,,,,Single-ply,SBD,M
Boys,89.81,1,Alonso Tarango,Perryton,88.72,226.8,147.42,213.19,587.4,Single-ply,SBD,M
Boys,89.81,2,Isaac Garza,Levelland,86.18,195.04,136.08,219.99,551.11,Single-ply,SBD,M
Boys,89.81,3,Cade Cox,Dumas,88.81,183.7,156.49,158.76,498.95,Single-ply,SBD,M
Boys,89.81,4,Jerimiah Washington,Wolfforth Frenship,84.64,183.7,92.99,206.38,483.08,Single-ply,SBD,M
Boys,89.81,5,Alex Conley,Sudan,86.27,176.9,131.54,174.63,483.08,Single-ply,SBD,M
Boys,89.81,6,Zaven Ponder,Plainview,87.72,195.04,99.79,161.03,455.86,Single-ply,SBD,M
Boys,89.81,7,Jordan Vasquez,Plainview,86.27,163.29,104.33,161.03,428.64,Single-ply,SBD,M
Boys,89.81,8,Lucas Barrington,Shallowater,87.63,161.03,108.86,158.76,428.64,Single-ply,SBD,M
Boys,89.81,9,Malachi Christensen,Shallowater,88.27,183.7,99.79,142.88,426.38,Single-ply,SBD,M
Boys,89.81,10,Caleb Pritchard,Lockney,85.05,167.83,79.38,136.08,383.29,Single-ply,SBD,M
Boys,89.81,11,David Shaver,Wolfforth Frenship,88.77,136.08,68.04,149.69,353.8,Single-ply,SBD,M
Boys,89.81,12,Aiden Herrea,Wolfforth Frenship,88.72,95.25,74.84,124.74,294.84,Single-ply,SBD,M
Boys,89.81,DQ,Kyle McCormick,Wolfforth Frenship,89.81,,,,,Single-ply,SBD,M
Boys,99.79,1,Dallan Dill,Dumas,97.93,199.58,147.42,181.44,528.44,Single-ply,SBD,M
Boys,99.79,2,Cole Boren,Post,97.2,215.46,138.35,167.83,521.63,Single-ply,SBD,M
Boys,99.79,3,Elijah Olivo,Shallowater,98.97,188.24,111.13,190.51,489.88,Single-ply,SBD,M
Boys,99.79,4,Sergio Arazate,Shallowater,92.99,165.56,113.4,190.51,469.47,Single-ply,SBD,M
Boys,99.79,5,Jacob Landeros,Plainview,96.93,179.17,104.33,158.76,442.25,Single-ply,SBD,M
Boys,99.79,6,Dean Petty,Wolfforth Frenship,90.04,149.69,99.79,154.22,403.7,Single-ply,SBD,M
Boys,99.79,7,Carter Gilson,Shallowater,93.85,131.54,74.84,156.49,362.87,Single-ply,SBD,M
Boys,99.79,DQ,Mark Hernandez,Dumas,90.36,,,,,Single-ply,SBD,M
Boys,99.79,DQ,Gaberiel Cisneros,Sudan,99.79,,,,,Single-ply,SBD,M
Boys,109.77,1,Ubaldo Tarango,Perryton,109.63,251.74,158.76,242.67,653.17,Single-ply,SBD,M
Boys,109.77,2,Chris Delatorre,Dumas,103.19,226.8,163.29,231.33,621.42,Single-ply,SBD,M
Boys,109.77,3,Dylen Wolfe,Levelland,102.15,254.01,136.08,210.92,601.01,Single-ply,SBD,M
Boys,109.77,4,Alan Mendoza,Seagraves,108.45,226.8,140.61,217.72,585.13,Single-ply,SBD,M
Boys,109.77,5,Chris Omeire,Canyon Randall,106.1,224.53,138.35,195.04,557.92,Single-ply,SBD,M
Boys,109.77,6,Icyten White,Plainview,109.13,197.31,147.42,181.44,526.17,Single-ply,SBD,M
Boys,109.77,7,Danny Guiterrez,Plainview,105.41,181.44,102.06,181.44,464.93,Single-ply,SBD,M
Boys,109.77,DQ,Donte Garland,Wolfforth Frenship,109.77,,,,,Single-ply,SBD,M
Boys,124.74,1,Omar Hernandez,Dumas,124.65,242.67,195.04,226.8,664.51,Single-ply,SBD,M
Boys,124.74,2,Miguel Celis,Perryton,114.03,242.67,145.15,215.46,603.28,Single-ply,SBD,M
Boys,124.74,3,Elias Aguirre,Muleshoe,111.45,226.8,147.42,181.44,555.65,Single-ply,SBD,M
Boys,124.74,4,Chris Jackson,Post,117.89,215.46,131.54,206.38,553.38,Single-ply,SBD,M
Boys,124.74,5,Lucas Martinez,Dumas,120.7,188.24,136.08,197.31,521.63,Single-ply,SBD,M
Boys,124.74,6,Kyler Carlson,Canyon Randall,116.71,163.29,111.13,158.76,433.18,Single-ply,SBD,M
Boys,124.74,7,Blaze Whitaker,Wolfforth Frenship,120.43,102.06,95.25,147.42,344.73,Single-ply,SBD,M
Boys,124.74,DQ,Jayden Hernandez,Wolfforth Frenship,124.74,,,,,Single-ply,SBD,M
Boys,124.74+,1,Yordi Hernandez,Perryton,127.1,308.44,170.1,263.08,741.62,Single-ply,SBD,M
Boys,124.74+,2,Taye Perez,Post,125.55,224.53,131.54,222.26,578.33,Single-ply,SBD,M
Boys,124.74+,3,Javen Diaz,Post,136.3,222.26,115.67,204.12,542.04,Single-ply,SBD,M
Boys,124.74+,4,Christian Garza,Plainview,134.85,176.9,120.2,165.56,462.66,Single-ply,SBD,M
