Division,WeightClassKg,Place,Name,Team,BodyweightKg,Best3SquatKg,Best3BenchKg,Best3DeadliftKg,TotalKg,Equipment,Event,Sex
Girls,44.23,1,Layla Renteria,Monahans,41.37,56.7,22.68,65.77,145.15,Single-ply,SBD,F
Girls,47.85,1,Andrea Cervantes,Big Lake Reagan County,46.99,113.4,52.16,113.4,278.96,Single-ply,SBD,F
Girls,47.85,2,Desiree Garza,Fort Stockton,47.36,88.45,38.56,102.06,229.06,Single-ply,SBD,F
Girls,47.85,3,Destini Mendoza,Andrews,47.36,58.97,34.02,81.65,174.63,Single-ply,SBD,F
Girls,47.85,4,Almanza Dori,Monahans,47.63,47.63,27.22,61.23,136.08,Single-ply,SBD,F
Girls,51.94,1,Clarissa Jimenez,Big Lake Reagan County,48.08,113.4,61.23,113.4,288.03,Single-ply,SBD,F
Girls,51.94,2,Genesis Martinez,McCamey,48.26,92.99,45.36,83.91,222.26,Single-ply,SBD,F
Girls,51.94,3,Lyla Villarreal,Pecos,51.8,88.45,43.09,90.72,222.26,Single-ply,SBD,F
Girls,51.94,4,Vanessa Trejo,Kermit,49.62,74.84,52.16,83.91,210.92,Single-ply,SBD,F
Girls,51.94,5,Abby Steger,Odessa,51.62,79.38,43.09,88.45,210.92,Single-ply,SBD,F
Girls,51.94,6,Crystal Ortega,Odessa,50.71,72.57,29.48,88.45,190.51,Single-ply,SBD,F
Girls,51.94,7,Nadia Garcia,Odessa,50.8,72.57,36.29,79.38,188.24,Single-ply,SBD,F
Girls,51.94,8,Brissa Carrasco,Kermit,50.98,74.84,40.82,65.77,181.44,Single-ply,SBD,F
Girls,51.94,9,Courtney Hollon,Pecos,49.26,68.04,36.29,72.57,176.9,Single-ply,SBD,F
Girls,51.94,10,Madison Zarate,McCamey,51.89,70.31,34.02,65.77,170.1,Single-ply,SBD,F
Girls,51.94,11,Megan Spires,Wink,49.62,52.16,27.22,70.31,149.69,Single-ply,SBD,F
Girls,51.94,DQ,Zoe Chavez,Big Lake Reagan County,50.89,,,,,Single-ply,SBD,F
Girls,51.94,DQ,Izzy Castillo,Pecos,50.62,,,,,Single-ply,SBD,F
Girls,56.02,1,Aaliyah Portales,Big Lake Reagan County,54.79,170.1,83.91,145.15,399.16,Single-ply,SBD,F
Girls,56.02,2,Katelyn Garcia,Odessa,55.43,127.01,74.84,140.61,342.46,Single-ply,SBD,F
Girls,56.02,3,Andrea Escobedo,Odessa,55.16,115.67,70.31,117.93,303.91,Single-ply,SBD,F
Girls,56.02,4,Esther Tercero,Fort Stockton,55.61,97.52,45.36,106.59,249.48,Single-ply,SBD,F
Girls,56.02,5,Nayeli Juarez,Kermit,55.43,92.99,34.02,113.4,240.4,Single-ply,SBD,F
Girls,56.02,6,Serena Jones,Odessa,53.89,79.38,52.16,102.06,233.6,Single-ply,SBD,F
Girls,56.02,7,Nana Beltran,Pecos,52.53,92.99,49.9,79.38,222.26,Single-ply,SBD,F
Girls,56.02,8,Maybeth Maldonado,Pecos,55.43,65.77,43.09,106.59,215.46,Single-ply,SBD,F
Girls,56.02,9,Renata Garcia,Monahans,55.61,86.18,38.56,90.72,215.46,Single-ply,SBD,F
Girls,56.02,10,Breana Mcmasters,Monahans,53.43,63.5,36.29,99.79,199.58,Single-ply,SBD,F
Girls,56.02,11,Leslie Delgado,Monahans,52.34,70.31,40.82,70.31,181.44,Single-ply,SBD,F
Girls,56.02,12,Jasmin Oritz,Monahans,53.71,65.77,31.75,72.57,170.1,Single-ply,SBD,F
Girls,56.02,13,Leah Dominguez,Wink,54.16,58.97,31.75,70.31,161.03,Single-ply,SBD,F
Girls,56.02,14,Alysa Tarango,McCamey,53.89,68.04,27.22,56.7,151.95,Single-ply,SBD,F
Girls,56.02,DQ,Erika Villa,Andrews,53.52,,,,,Single-ply,SBD,F
Girls,56.02,DQ,Angelique Fox,Alpine,55.7,,,,,Single-ply,SBD,F
Girls,60.1,1,Raquelle Bernal,Fort Stockton,58.88,106.59,61.23,115.67,283.5,Single-ply,SBD,F
Girls,60.1,2,Delilah Lopez,Andrews,58.88,102.06,58.97,106.59,267.62,Single-ply,SBD,F
Girls,60.1,3,Lizbeth Hernandez,Big Lake Reagan County,57.24,102.06,52.16,102.06,256.28,Single-ply,SBD,F
Girls,60.1,4,Noveah Sanchez,Monahans,57.88,81.65,47.63,99.79,229.06,Single-ply,SBD,F
Girls,60.1,5,Jacinda Lopez,Fort Stockton,57.52,92.99,38.56,83.91,215.46,Single-ply,SBD,F
Girls,60.1,6,Kayln Warren,Wink,58.97,90.72,34.02,74.84,199.58,Single-ply,SBD,F
Girls,60.1,7,Milagros Armandariz,Monahans,57.7,68.04,34.02,90.72,192.78,Single-ply,SBD,F
Girls,60.1,8,Makayla Griffin,Andrews,58.24,58.97,36.29,83.91,179.17,Single-ply,SBD,F
Girls,60.1,9,Nyla Baeza,McCamey,58.88,68.04,36.29,72.57,176.9,Single-ply,SBD,F
Girls,60.1,10,Trylis Ramirez,Monahans,57.52,58.97,31.75,68.04,158.76,Single-ply,SBD,F
Girls,60.1,11,Triniti Montanez,Pecos,56.06,56.7,34.02,61.23,151.95,Single-ply,SBD,F
Girls,60.1,DQ,Ashley Ricks,McCamey,59.06,104.33,36.29,,,Single-ply,SBD,F
Girls,60.1,DQ,Dariana Montantes,Andrews,58.88,138.35,,,,Single-ply,SBD,F
Girls,60.1,DQ,Nayeli Sigala,Andrews,57.88,,,,,Single-ply,SBD,F
Girls,67.36,1,Kabrina Sanchez,Odessa,63.14,147.42,70.31,147.42,365.14,Single-ply,SBD,F
Girls,67.36,2,Bella Renteria,Fort Stockton,65.68,127.01,63.5,124.74,315.25,Single-ply,SBD,F
Girls,67.36,3,Daisy Venegas,Monahans,63.14,117.93,54.43,122.47,294.84,Single-ply,SBD,F
Girls,67.36,4,Maci Garrett,Wink,61.42,99.79,58.97,127.01,285.76,Single-ply,SBD,F
Girls,67.36,5,Cassie Franco,Odessa,66.32,117.93,63.5,99.79,281.23,Single-ply,SBD,F
Girls,67.36,6,Desiree Lopez,Fort Stockton,67.31,102.06,54.43,124.74,281.23,Single-ply,SBD,F
Girls,67.36,7,Amy Molina,McCamey,64.77,108.86,63.5,104.33,276.69,Single-ply,SBD,F
Girls,67.36,8,Jessica Mcclain,Monahans,64.32,97.52,61.23,111.13,269.89,Single-ply,SBD,F
Girls,67.36,9,Amber Steger,Odessa,63.68,97.52,54.43,90.72,242.67,Single-ply,SBD,F
Girls,67.36,10,Kyndall Garduno,Wink,60.78,92.99,40.82,92.99,226.8,Single-ply,SBD,F
Girls,67.36,11,Amberly Longoria,Odessa,66.32,79.38,43.09,90.72,213.19,Single-ply,SBD,F
Girls,67.36,12,Arianna Clements,Odessa,61.78,79.38,45.36,86.18,210.92,Single-ply,SBD,F
Girls,67.36,13,Briana Otero,Monahans,64.32,56.7,31.75,79.38,167.83,Single-ply,SBD,F
Girls,67.36,DQ,Valeria Corona-Romo,Odessa,60.6,90.72,,,,Single-ply,SBD,F
Girls,75.07,1,Caitlin Pando,Monahans,74.48,122.47,58.97,147.42,328.85,Single-ply,SBD,F
Girls,75.07,2,Miray Rodriguez,Pecos,70.67,142.88,58.97,102.06,303.91,Single-ply,SBD,F
Girls,75.07,3,Sabrina Caballero,Andrews,73.12,111.13,47.63,136.08,294.84,Single-ply,SBD,F
Girls,75.07,4,Kira Minjarez,Odessa,73.75,104.33,63.5,92.99,260.82,Single-ply,SBD,F
Girls,75.07,5,Yadira Hernandez,Fort Stockton,69.13,106.59,45.36,102.06,254.01,Single-ply,SBD,F
Girls,75.07,6,Giselle López,Fort Stockton,73.12,102.06,38.56,102.06,242.67,Single-ply,SBD,F
Girls,75.07,7,Ivy Adamson,Monahans,73.66,92.99,45.36,95.25,233.6,Single-ply,SBD,F
Girls,75.07,8,Angela Martinez,Alpine,69.13,90.72,43.09,90.72,224.53,Single-ply,SBD,F
Girls,75.07,9,Collwell Jessica,Monahans,70.03,79.38,43.09,97.52,219.99,Single-ply,SBD,F
Girls,75.07,10,Alyzza Villarreal,Big Lake Reagan County,71.76,83.91,38.56,92.99,215.46,Single-ply,SBD,F
Girls,75.07,11,Xitlalic Vasquez,Fort Stockton,72.57,92.99,38.56,83.91,215.46,Single-ply,SBD,F
Girls,75.07,12,Emily Gonzales,Monahans,68.13,90.72,40.82,77.11,208.65,Single-ply,SBD,F
Girls,75.07,13,Latresa Powers,Monahans,68.04,58.97,31.75,72.57,163.29,Single-ply,SBD,F
Girls,75.07,14,Amoris Salazar,Monahans,72.76,43.09,27.22,79.38,149.69,Single-ply,SBD,F
Girls,75.07,DQ,Nautica Mills,Wink,72.76,81.65,,,,Single-ply,SBD,F
Girls,82.33,1,Nayelli Hinojos,Monahans,79.29,122.47,65.77,117.93,306.17,Single-ply,SBD,F
Girls,82.33,2,Italia Anaya,Alpine,80.24,124.74,52.16,115.67,292.57,Single-ply,SBD,F
Girls,82.33,3,Natali Sanchez,Midland,82.19,124.74,45.36,115.67,285.76,Single-ply,SBD,F
Girls,82.33,4,Deyna Caballero,Monahans,81.28,86.18,40.82,106.59,233.6,Single-ply,SBD,F
Girls,82.33,5,Alexis Renteria,McCamey,78.56,88.45,52.16,88.45,229.06,Single-ply,SBD,F
Girls,82.33,6,Julia Anderson,McCamey,82.1,77.11,40.82,86.18,204.12,Single-ply,SBD,F
Girls,82.33,7,Dynara Ontiveroz,Monahans,82.1,68.04,43.09,86.18,197.31,Single-ply,SBD,F
Girls,82.33,8,Angel Birdsong,Monahans,75.57,58.97,31.75,65.77,156.49,Single-ply,SBD,F
Girls,90.04,1,Isabella Diaz,Fort Stockton,85.91,120.2,56.7,127.01,303.91,Single-ply,SBD,F
Girls,90.04,2,Georgia Tucker,Andrews,88.63,111.13,52.16,115.67,278.96,Single-ply,SBD,F
Girls,90.04,3,Reagan Munoz,Fort Stockton,89.99,113.4,47.63,102.06,263.08,Single-ply,SBD,F
Girls,90.04,DQ,Shay Mcdonald,Big Lake Reagan County,88.18,124.74,65.77,,,Single-ply,SBD,F
Girls,90.04,DQ,Yvonne Granados,Monahans,84.73,,,,,Single-ply,SBD,F
Girls,100.02,1,Karina Camillo,Odessa,98.97,129.27,90.72,149.69,369.68,Single-ply,SBD,F
Girls,100.02,2,Ashleigh Ramirez,Fort Stockton,99.79,158.76,68.04,122.47,349.27,Single-ply,SBD,F
Girls,100.02,3,Gabby Acosta,Monahans,98.61,108.86,74.84,120.2,303.91,Single-ply,SBD,F
Girls,100.02,4,Emma Flores,Andrews,93.08,102.06,56.7,115.67,274.42,Single-ply,SBD,F
Girls,117.71,1,Faith Arnold,Odessa,106.59,133.81,74.84,106.59,315.25,Single-ply,SBD,F
Girls,117.71,2,Nyia Allen,McCamey,106.5,115.67,72.57,102.06,290.3,Single-ply,SBD,F
Girls,117.71,3,Ashton Marquez,McCamey,105.41,104.33,43.09,97.52,244.94,Single-ply,SBD,F
Girls,117.71,4,Mercedes Narvaez,Big Lake Reagan County,107.14,81.65,52.16,83.91,217.72,Single-ply,SBD,F
Girls,117.71,DQ,Jamee Silva,Andrews,107.68,,,,,Single-ply,SBD,F
Girls,117.71+,1,Jayden Buckner,Andrews,122.38,149.69,70.31,117.93,337.93,Single-ply,SBD,F
Girls,117.71+,2,Leea Taylor,Monahans,117.84,52.16,43.09,61.23,156.49,Single-ply,SBD,F
